<svg xmlns="http://www.w3.org/2000/svg" xmlns:xlink="http://www.w3.org/1999/xlink" width="531.105" height="304.855" viewBox="0 0 531.105 304.855">
  <defs>
    <style>
      .cls-1 {
        opacity: 0.65;
        fill: url(#linear-gradient);
      }

      .cls-2, .cls-3 {
        fill: #e28100;
      }

      .cls-17, .cls-2, .cls-4 {
        fill-rule: evenodd;
      }

      .cls-4 {
        fill: #faaf40;
      }

      .cls-5 {
        fill: #06497d;
      }

      .cls-6 {
        fill: #136fb7;
      }

      .cls-7 {
        fill: #021e4c;
      }

      .cls-8 {
        fill: #fff;
      }

      .cls-9 {
        fill: #97d3f1;
      }

      .cls-10 {
        fill: #cfeaf9;
      }

      .cls-11 {
        fill: url(#linear-gradient-2);
      }

      .cls-12 {
        fill: url(#linear-gradient-3);
      }

      .cls-13 {
        fill: #364c77;
      }

      .cls-14 {
        fill: #dee7ec;
      }

      .cls-15 {
        fill: #17233f;
      }

      .cls-16 {
        fill: #15100c;
      }

      .cls-17 {
        fill: #c2d9ef;
      }

      .cls-18 {
        fill: #d3e3f4;
      }

      .cls-19 {
        fill: #e4edf9;
      }

      .cls-20 {
        fill: #cdd5d7;
      }

      .cls-21 {
        fill: #b7bec0;
      }

      .cls-22 {
        fill: #dbdac6;
      }

      .cls-23 {
        fill: #b0bfde;
      }

      .cls-24 {
        fill: #f80;
      }

      .cls-25 {
        fill: #f4901e;
      }

      .cls-26 {
        fill: #ffc400;
      }

      .cls-27 {
        fill: #edeef0;
      }

      .cls-28 {
        fill: #161711;
      }

      .cls-29 {
        fill: #294168;
      }

      .cls-30 {
        fill: #ffa12b;
      }

      .cls-31 {
        fill: #e4eef3;
      }

      .cls-32 {
        fill: #282723;
      }

      .cls-33 {
        fill: #d1dbea;
      }

      .cls-34 {
        fill: #c5d2ef;
      }
    </style>
    <linearGradient id="linear-gradient" y1="0.5" x2="1.254" y2="0.5" gradientUnits="objectBoundingBox">
      <stop offset="0" stop-color="#1ccc7b"/>
      <stop offset="0.15" stop-color="#1ec981"/>
      <stop offset="0.33" stop-color="#22c190"/>
      <stop offset="0.54" stop-color="#29b4ab"/>
      <stop offset="0.77" stop-color="#33a2cf"/>
      <stop offset="1" stop-color="#3f8cfc"/>
    </linearGradient>
    <linearGradient id="linear-gradient-2" x1="0.949" y1="2.137" x2="1.048" y2="1.415" gradientUnits="objectBoundingBox">
      <stop offset="0" stop-color="#cfeaf9"/>
      <stop offset="1" stop-color="#e4eef3"/>
    </linearGradient>
    <linearGradient id="linear-gradient-3" x1="0.96" y1="2.051" x2="1.065" y2="1.351" gradientUnits="objectBoundingBox">
      <stop offset="0" stop-color="#cfeaf9"/>
      <stop offset="1" stop-color="#fff"/>
    </linearGradient>
  </defs>
  <g id="Payments_Pub_copy" data-name="Payments Pub copy" transform="translate(-1415.228 -147)">
    <path id="Path_3112" data-name="Path 3112" class="cls-1" d="M590.992,290.6c-5.933-36.185-15.609-72.046-34.84-103.73-8.567-14.116-19.281-27.551-33.83-36.349-17.244-10.428-38.967-13.507-59.137-10.12s-38.89,12.909-54.351,25.532c-22.6,18.5-38.364,43.248-59.5,63.215-27.573,26.059-61.409,39.132-98.071,49.631-42.71,12.245-85.909,27.409-118.806,55.767-9.572,8.232-18.265,17.711-23.435,28.9s-6.493,24.324-1.493,35.592c7.607,17.19,27.623,26.344,46.761,31.229,66.958,17.014,137.878-.609,207.224,1.235,28.644.757,58.319,2.519,86.255,8.353,26.767,5.582,55.322,6.114,81.107-2.64,34.077-11.569,60.5-40.493,66.014-74.2,2.969-18.156,1.169-36.684-1.284-54.884C592.814,302.272,591.958,296.433,590.992,290.6Z" transform="translate(1349.899 7.916)"/>
    <path id="Path_3113" data-name="Path 3113" class="cls-2" d="M520.557,417.85a6.038,6.038,0,0,0-3.337-4.989,6.285,6.285,0,0,0-.307-1.394,5.049,5.049,0,0,0-6.432-3.073l.7,1.981a2.942,2.942,0,0,1,3.749,1.795.455.455,0,0,0,0,.077,5.888,5.888,0,0,0-.823,0,5.033,5.033,0,0,0-4.7,4.912,1.584,1.584,0,0,0,0,.357.647.647,0,0,0,0,.1h0c.165.938,1.065,2.283,3.293,1.718.17-.038.34-.1.51-.154a6.037,6.037,0,0,0,3.765-3.968c.038.033.088.055.126.088a3.924,3.924,0,0,1,1.339,2.7,5.186,5.186,0,0,1-4.819,5.521,6.734,6.734,0,0,1-7.179-6.268l-2.1.143a8.853,8.853,0,0,0,7.206,8.1,9,9,0,0,0,2.2.121,7.278,7.278,0,0,0,6.773-7.761Zm-5.79-2.667a3.892,3.892,0,0,1-2.239,2.014,2.426,2.426,0,0,1-.988.121,2.92,2.92,0,0,1,2.744-2.975,3.694,3.694,0,0,1,.779,0,4.006,4.006,0,0,1-.3.84Z" transform="translate(1169.451 -113.458)"/>
    <rect id="Rectangle_1706" data-name="Rectangle 1706" class="cls-3" width="19.769" height="22.936" rx="3.83" transform="translate(1580.894 350.188)"/>
    <rect id="Rectangle_1707" data-name="Rectangle 1707" class="cls-3" width="19.775" height="22.936" rx="3.83" transform="translate(1632.298 350.188)"/>
    <path id="Path_3114" data-name="Path 3114" class="cls-2" d="M298.275,330.6h-.4v36.36h19.758A23.331,23.331,0,0,0,298.3,330.58Z" transform="translate(1262.603 -78.48)"/>
    <path id="Path_3115" data-name="Path 3115" class="cls-4" d="M347.188,353.68h-34.8A47.469,47.469,0,0,0,267.113,386.9H254.66v27.678h8.172l-1.762,8.534h8.5a47.419,47.419,0,0,0,42.809,27.058h34.8a47.449,47.449,0,0,0,47.458-47.474v-1.57a47.446,47.446,0,0,0-47.441-47.441Z" transform="translate(1282.102 -88.902)"/>
    <path id="Path_3116" data-name="Path 3116" class="cls-2" d="M434.11,539.25a5.154,5.154,0,0,0,.1.971h14.775a2.113,2.113,0,0,0,2.1-2.1V527a47.3,47.3,0,0,1-16.975,6.037Z" transform="translate(1201.14 -167.098)"/>
    <path id="Path_3117" data-name="Path 3117" class="cls-2" d="M335.35,537.44v5.39a2.113,2.113,0,0,0,2.1,2.1h12.074V538.5H345.3A47.092,47.092,0,0,1,335.35,537.44Z" transform="translate(1245.697 -171.808)"/>
    <path id="Path_3118" data-name="Path 3118" class="cls-2" d="M307.975,426.257h-2a6.114,6.114,0,1,0-12.228,0h-2a8.117,8.117,0,1,1,16.234,0Z" transform="translate(1265.373 -117.984)"/>
    <path id="Path_3119" data-name="Path 3119" class="cls-4" d="M329.985,330.6h-.4v36.36h19.758a23.342,23.342,0,0,0-19.341-36.382Z" transform="translate(1248.296 -78.48)"/>
    <path id="Path_3120" data-name="Path 3120" class="cls-5" d="M733.625,354.436,690.492,457.567,521.95,445.174,566.867,351Z" transform="translate(1161.51 -87.693)"/>
    <path id="Path_3121" data-name="Path 3121" class="cls-6" d="M731.25,354.356,688.117,457.487l-168.547-12.4,44.922-94.169Z" transform="translate(1162.584 -87.657)"/>
    <path id="Path_3122" data-name="Path 3122" class="cls-7" d="M783.42,541.35l25.411.928.346,21.871-6.163,3.523Z" transform="translate(1043.544 -173.572)"/>
    <path id="Path_3123" data-name="Path 3123" class="cls-5" d="M780.377,541.26l25.411.928.5,22.2-26.717-.971Z" transform="translate(1045.281 -173.532)"/>
    <path id="Path_3124" data-name="Path 3124" class="cls-5" d="M518.828,522.2l15.872.576.565,5.894-16.646-.6Z" transform="translate(1163.012 -164.933)"/>
    <g id="Group_3224" data-name="Group 3224" transform="translate(1600.526 388.249)">
      <path id="Path_3125" data-name="Path 3125" class="cls-5" d="M621.976,578.65l-82.045,49.214L370.84,615.449l11.586-6.844Z" transform="translate(-370.84 -578.65)"/>
      <path id="Path_3126" data-name="Path 3126" class="cls-7" d="M760.975,578.65l.011,2.9-82.045,49.209-.011-2.9Z" transform="translate(-509.839 -578.65)"/>
      <path id="Path_3127" data-name="Path 3127" class="cls-6" d="M539.931,658.115l.011,2.9L370.851,648.6l-.011-2.9Z" transform="translate(-370.84 -608.901)"/>
    </g>
    <path id="Path_3128" data-name="Path 3128" class="cls-8" d="M623.743,533.2l-78.824,46.53L382.98,567.74l78.829-46.53Z" transform="translate(1224.208 -164.486)"/>
    <path id="Path_3129" data-name="Path 3129" class="cls-9" d="M610.836,562.037l-9.8,5.648-42.76-3.167,9.8-5.648Z" transform="translate(1145.119 -181.477)"/>
    <path id="Path_3130" data-name="Path 3130" class="cls-9" d="M610.836,562.037l-9.8,5.648-42.76-3.167,9.8-5.648" transform="translate(1145.119 -181.477)"/>
    <path id="Path_3131" data-name="Path 3131" class="cls-10" d="M575.91,565.235l33.084,2.453,9.8-5.648-42.65-3.161Z" transform="translate(1137.165 -181.481)"/>
    <path id="Path_3132" data-name="Path 3132" class="cls-7" d="M610.424,567.226l-5.373,3.03-37.881-2.81,4.912-2.876" transform="translate(1141.108 -184.048)"/>
    <path id="Path_3133" data-name="Path 3133" class="cls-11" d="M728.325,358.88l-40.855,99.762-161.939-12,42.65-91.694Z" transform="translate(1159.895 -89.475)"/>
    <path id="Path_3134" data-name="Path 3134" class="cls-12" d="M722.293,346.605,687.469,453.1l-161.939-12,36.618-98.434Z" transform="translate(1159.895 -83.935)"/>
    <path id="Path_3135" data-name="Path 3135" class="cls-9" d="M756.864,543.06l.082,19.747-78.829,46.53-.077-19.747Z" transform="translate(1091.088 -174.344)"/>
    <path id="Path_3136" data-name="Path 3136" class="cls-10" d="M544.919,617.982,545,637.729l-161.934-12-.082-19.742Z" transform="translate(1224.208 -202.736)"/>
    <path id="Path_3137" data-name="Path 3137" class="cls-13" d="M381.186,336.752v-.088l.049-.066a46.4,46.4,0,0,1,4.171-12.563c1.416-2.744,4.27-5.329,5.527-6.635,3.249,1.767,6.454.944,9.489,3.238a27.667,27.667,0,0,1,.944,4.089c.461,2.645.856,5.11,1.2,7.415,4.7.445,16.317,1.334,20.691,2.2a4.366,4.366,0,0,1,3.145,1.932c-.231,4.226-3.661,6.613-5.735,9.994-.368.6-28.161.082-32.93.324C388.354,346.905,378.854,345.632,381.186,336.752Z" transform="translate(1225.184 -72.534)"/>
    <path id="Path_3138" data-name="Path 3138" class="cls-14" d="M431.732,356.981a18.626,18.626,0,0,0,1.756-2.964c.445-1.893.434-3.161-.1-3.611-2.058-1.7-9.067,1.839-26.69,28.265-3.842,5.752-11.427,16.75-9.808,15.532a42.656,42.656,0,0,0,4.94-4.72C425.936,364.511,428.132,361.141,431.732,356.981Z" transform="translate(1218.035 -87.264)"/>
    <path id="Path_3139" data-name="Path 3139" class="cls-15" d="M395.754,424.014l3.128-5.005a1.433,1.433,0,0,1,1.257-.719l-2.4,3.842a1.745,1.745,0,0,0,.258,2.239,1.153,1.153,0,0,0,.681.258l-.724,1.185a1.3,1.3,0,0,1-1.943.461A1.762,1.762,0,0,1,395.754,424.014Z" transform="translate(1218.58 -118.052)"/>
    <path id="Path_3140" data-name="Path 3140" class="cls-16" d="M406.844,321.868c0,.132-.637.2-1.394.148l-8.633-.549c-.763-.049-1.372-.192-1.367-.324l.027-.489c0-.132.637-.2,1.4-.148l8.628.549c.763.044,1.378.192,1.367.318Z" transform="translate(1218.582 -73.928)"/>
    <path id="Path_3141" data-name="Path 3141" class="cls-8" d="M426.284,360.349a15.318,15.318,0,0,0,1.169-3.161c.088-1.9-.241-3.008-.763-3.485-2.365-2.151-7.574,1.833-16,19.171-4.248,8.743-7.651,16.877-13.392,21.553-.834.681-1.059.779-1.328,1.57a11.388,11.388,0,0,0-.362,5.428C399.633,397.741,415.06,378.1,426.284,360.349Z" transform="translate(1218.588 -88.672)"/>
    <path id="Path_3142" data-name="Path 3142" class="cls-13" d="M392.571,432.809l2.711-5.236a1.421,1.421,0,0,1,1.2-.823l-2.086,4.039a1.74,1.74,0,0,0,.439,2.2,1.1,1.1,0,0,0,.7.2l-.626,1.218a1.3,1.3,0,0,1-1.893.615A1.751,1.751,0,0,1,392.571,432.809Z" transform="translate(1219.979 -121.869)"/>
    <path id="Path_3143" data-name="Path 3143" class="cls-15" d="M419.5,264.424a8.607,8.607,0,0,0-3.013-3.013,8.348,8.348,0,1,0,2.887,11.778,10.066,10.066,0,0,1,.126-8.765Z" transform="translate(1214.723 -46.78)"/>
    <path id="Path_3144" data-name="Path 3144" class="cls-17" d="M420.456,276.869c1.021-.154,2.541,1.048,2.887,3.057,1.679,9.775.752,21.158.752,21.158s-.225,3.189-1.948,2.486-3.743-7.563-5.181-21.487C416.537,278.033,418.727,277.127,420.456,276.869Z" transform="translate(1208.9 -54.242)"/>
    <path id="Path_3145" data-name="Path 3145" class="cls-14" d="M450.57,337.12a5.563,5.563,0,0,1,1.893,1.542c.274.549,1.136,3.222,1.136,3.222a3.342,3.342,0,0,1-1.24-1.646,11.232,11.232,0,0,0-1.789-3.117Z" transform="translate(1193.714 -81.431)"/>
    <path id="Path_3146" data-name="Path 3146" class="cls-14" d="M451.874,339.012c.988.4,1.614,1.46,2.047,2.892a2.459,2.459,0,0,0,1.279,1.646,16.713,16.713,0,0,0-1.037-2.947c-.241-.549-.516-1.142-.8-1.685C452.44,337.129,449.3,337.991,451.874,339.012Z" transform="translate(1193.573 -81.775)"/>
    <path id="Path_3147" data-name="Path 3147" class="cls-8" d="M447.863,334.978c.082.741,1.1,1.712,1.026,2.168a5.087,5.087,0,0,1-.79,1.965c1.57,0,1.817-2.2,2.5-2.892S447.654,333.051,447.863,334.978Z" transform="translate(1194.939 -80.139)"/>
    <path id="Path_3148" data-name="Path 3148" class="cls-8" d="M432.5,325.173c2.607,1.026,5.625,2.146,6.794,3.293,1.647,1.614,1.817,3.183,3.293,3.782a4.8,4.8,0,0,1,.461.252c.412.225.917.406,1.1.549s.648.549.549.318a21.626,21.626,0,0,0-2.854-4.89,69.929,69.929,0,0,0-8.908-5.252C430.263,322.155,428.979,323.78,432.5,325.173Z" transform="translate(1202.836 -75.006)"/>
    <path id="Path_3149" data-name="Path 3149" class="cls-8" d="M452.82,339.189s.22-.549.642-.384a7.99,7.99,0,0,1,2.163,1.646c.412.417,2.036,2.744,2.036,2.744a3.293,3.293,0,0,1-1.674-1.2A14.122,14.122,0,0,0,452.82,339.189Z" transform="translate(1192.699 -82.177)"/>
    <path id="Path_3150" data-name="Path 3150" class="cls-8" d="M426.875,319.1c-1.866.494-2,.84-2.135,1.839,4.391,3.43,13.622,5.192,13.622,5.192Z" transform="translate(1205.368 -73.301)"/>
    <path id="Path_3151" data-name="Path 3151" class="cls-17" d="M431.449,324.892a9.141,9.141,0,0,1,1.6-3.123,81.537,81.537,0,0,0-7.36-4.6,1.443,1.443,0,0,0-2.086,1.411c.269,1.883.6,2.651,2.623,3.842A40.622,40.622,0,0,0,431.449,324.892Z" transform="translate(1205.882 -72.358)"/>
    <path id="Path_3152" data-name="Path 3152" class="cls-15" d="M399.371,254.27a10.815,10.815,0,0,0-1.647-.79,10.066,10.066,0,0,1-13.216,5.872,10.335,10.335,0,1,0,14.868-5.082Z" transform="translate(1223.848 -43.695)"/>
    <path id="Path_3153" data-name="Path 3153" class="cls-15" d="M422.931,253.864a7.471,7.471,0,1,1-5.6-9.358A7.715,7.715,0,0,1,422.931,253.864Z" transform="translate(1212.846 -39.574)"/>
    <path id="Path_3154" data-name="Path 3154" class="cls-8" d="M399.75,269.691s1.987,7.453,5.84,9.259,5.966,1.35,6.9-.143,1.778-4.643,1.026-5.653a10.6,10.6,0,0,1-1.965-3.694c-.4-1.372.291-3.573,1.131-5.208s2.25-1.449,1.037-2.563-.461-1.789-1.9-1.861-2.135-.763-2.42.549c-.549,2.426-1.07,5.883-2.744,7.135C404.755,268.977,403.18,269.186,399.75,269.691Z" transform="translate(1216.642 -46.449)"/>
    <path id="Path_3155" data-name="Path 3155" class="cls-8" d="M423.4,251.335c-.11-.06-.225-.115-.34-.165a7.984,7.984,0,0,1-4.116,3.77,10.711,10.711,0,0,1-1.487.549l-.291,1.345a3.849,3.849,0,0,0,7.519,1.647l.653-3.024A8.321,8.321,0,0,1,423.4,251.335Z" transform="translate(1208.825 -42.653)"/>
    <path id="Path_3156" data-name="Path 3156" class="cls-16" d="M406.494,324.086c0,.143-.7.22-1.553.17l-9.61-.6c-.851-.049-1.531-.209-1.52-.357l.033-.549c0-.148.708-.22,1.553-.17l9.61.6c.851.055,1.531.214,1.52.357Z" transform="translate(1219.322 -74.863)"/>
    <path id="Path_3157" data-name="Path 3157" class="cls-18" d="M411.3,289.5c.225-4.533-.241-6.416-1.136-8.743-.236-.615-.84-1.229-1.043-1.74,1.465,9.105-5.258,5.143-7.684.708-1.526,1.432-7.009,2.415-7.025,2.7-.126,3.15.038,6.3-.055,9.451a4.863,4.863,0,0,0,1.553,3.469,3.123,3.123,0,0,0-.132.774l-.159,1.548c-.049,1.262-2.607,5.56-1.74,5.62l12.623.675c.862.066,2-2.525,2.047-3.787l1.306-6.169a3.043,3.043,0,0,0,0-.318A7.031,7.031,0,0,0,411.3,289.5Z" transform="translate(1219.37 -55.218)"/>
    <path id="Path_3158" data-name="Path 3158" class="cls-18" d="M400.218,276.492s-5.022-.5-6.317,1.789c-1.723,3.024-1.3,6.262-.988,8.419.357,2.514.2,5.763.763,9,.675,3.935-2.591,7.4-1.921,6.767.132-.126,4.808.549,7.36-.582s1.218-6.2,1.032-7.634c-.423-3.249,2.442-9.61,2-12.212a22.266,22.266,0,0,0-1.926-5.549Z" transform="translate(1220.291 -54.057)"/>
    <path id="Path_3159" data-name="Path 3159" class="cls-18" d="M422.438,283.783a9.88,9.88,0,0,0-1.432-3.4,5.17,5.17,0,0,0-1.3-1.3c-.818-.637-.724-.549-.412.192.587,1.383,1.328,4.072.724,9.44-.176,1.57-1.575,5.214-2.333,7.618S416,303.2,416,303.2s2.547.79,2.629,1.191a20.446,20.446,0,0,1,.823-6.751C422.262,289.513,423.014,288.141,422.438,283.783Z" transform="translate(1209.311 -55.053)"/>
    <path id="Path_3160" data-name="Path 3160" class="cls-19" d="M398.188,277.512c.96-.439,2.585-.609,3.008,1.471,1.872,9.1,2.969,27.074,2.969,27.074a2.692,2.692,0,0,1-2.629.4c-3.074-.79-3.079-7.206-5.763-21.953C395,280.24,396.569,278.247,398.188,277.512Z" transform="translate(1218.529 -54.413)"/>
    <path id="Path_3161" data-name="Path 3161" class="cls-8" d="M423.638,335.65s4.511,3.842,4.9,3.974.659,0,1.586-.066a16.7,16.7,0,0,1,1.822,0,6.3,6.3,0,0,1,.812.027s-.055.406-.34.472-.878.049-1.1.11.521,0,1.581.258a14.883,14.883,0,0,1,2.492.807c.274.121.307.143.307.154,0,.132-.049.252-.181.258s-.549-.088-.5-.066a5.338,5.338,0,0,0,.8.439c.11.044.263.1.357.148.187.1.06.324-.3.373,0,0-.1.154-.214.176l-.154.027h-.192a6.009,6.009,0,0,1-.7,0,5.8,5.8,0,0,0-.889-.137s.609.236.587.28a.3.3,0,0,1-.291.192c-.2-.049-.5-.11-1.328-.34a6.673,6.673,0,0,0-2.3-.4,2.393,2.393,0,0,1-1.954-.779c-2.025-1.844-6.465-3.518-7.069-4.045S423.638,335.65,423.638,335.65Z" transform="translate(1206.925 -80.768)"/>
    <path id="Path_3162" data-name="Path 3162" class="cls-19" d="M414.315,333.733c1.1-.6,1.1-1.981,1.773-3.474-3.123-2.376-5.379-4.66-8.831-6.877-1.29-.823-4.127.06-4.5,1.01-.637,1.608,4.66,5.192,7.332,6.762C411.648,332.054,413.168,333.4,414.315,333.733Z" transform="translate(1215.31 -75.086)"/>
    <rect id="Rectangle_1708" data-name="Rectangle 1708" class="cls-20" width="24.407" height="0.505" transform="translate(1626.255 261.595)"/>
    <path id="Path_3163" data-name="Path 3163" class="cls-20" d="M437.339,337.521a.664.664,0,0,0,.62.7h12.513c.34,0,.8-.247,1.218-1.235l6.191-11.295a.648.648,0,0,0-.724-.708l-12.843.39a1.185,1.185,0,0,0-.807.851Z" transform="translate(1199.684 -75.954)"/>
    <path id="Path_3164" data-name="Path 3164" class="cls-21" d="M429.953,348.8H417.61a4.583,4.583,0,0,0,2,.384h20.565a4.594,4.594,0,0,0,2-.384Z" transform="translate(1208.585 -86.7)"/>
    <path id="Path_3165" data-name="Path 3165" class="cls-15" d="M841.43,429.707a5.774,5.774,0,0,0,5.768,5.768l1.443-2.744c3.183,0,5.763-4.8,5.763-7.986v-2.162a5.763,5.763,0,0,0-5.763-5.763H847.2a5.768,5.768,0,0,0-5.768,5.763Z" transform="translate(1017.372 -117.389)"/>
    <path id="Path_3166" data-name="Path 3166" class="cls-15" d="M857.079,427.18a7.454,7.454,0,0,1,.933.06,7.419,7.419,0,0,0-.1,1.169,7.563,7.563,0,0,0,6.734,7.453,7.651,7.651,0,1,1-7.568-8.672Z" transform="translate(1013.769 -122.063)"/>
    <path id="Path_3167" data-name="Path 3167" class="cls-8" d="M844.344,420.81a11.8,11.8,0,0,0,.143,1.646c.582,3.7,2.832,6.515,5.291,6.86a17.383,17.383,0,0,0,.818,4.468,8.647,8.647,0,0,0,2.2,3c.417,2.585-8.386,6.383-8.178,5.966a25.462,25.462,0,0,0,3.09-6.257,5.686,5.686,0,0,0-.884-4.66,4.731,4.731,0,0,0-3.375-1.6.675.675,0,0,1-.483-.209,4.2,4.2,0,0,1-.181-1.207v-4.78a4.094,4.094,0,0,1,1.564-3.233Z" transform="translate(1016.763 -119.189)"/>
    <path id="Path_3168" data-name="Path 3168" class="cls-18" d="M847.967,472.353c.971,2.387,6.652,2.365,7.623,0l5.346-17.189c.2-1.784.126-4.363-2.146-4.363h-6.125l-2.788,1.339-2.453-1.339h-1.482c-2.272,0-3.337,1.954-2.36,4.341Z" transform="translate(1016.565 -132.719)"/>
    <path id="Path_3169" data-name="Path 3169" class="cls-22" d="M876.483,489.048s1.1.681,4.391-3.677a61.791,61.791,0,0,0,3.946-6.081c1.537-2.645-1.482-.626-1.482-.626L879,483.082S875.863,486.8,876.483,489.048Z" transform="translate(1001.594 -144.958)"/>
    <path id="Path_3170" data-name="Path 3170" class="cls-19" d="M872.779,451.677c2.365,5.236,2.014,24.555,2.014,24.555s-1.839,7.08-4.2-18.49C869.876,450.085,872.2,450.382,872.779,451.677Z" transform="translate(1004.277 -132.795)"/>
    <path id="Path_3171" data-name="Path 3171" class="cls-18" d="M838.963,453.391l-5.521,16.674s-.379,1.147.779.39c1.647-1.1,5.28-4.94,8.523-12.673C845.126,452.09,840.428,453.05,838.963,453.391Z" transform="translate(1021.003 -133.762)"/>
    <path id="Path_3172" data-name="Path 3172" class="cls-8" d="M895.872,461.75l.274,1.542-.126,1.273-.977,1.839a13.594,13.594,0,0,1-2,2.322c-.724.516-2.667,3.2-2.986,3.474s-1.4-.313-1.4-.313,1.91-2.36,2.854-3.4a30.557,30.557,0,0,0,2.135-3.386,6.122,6.122,0,0,1,1.3-1.142s-.735,1.273-.971,1.581.241.406.241.406a12.119,12.119,0,0,0,1.328-2.2,3.329,3.329,0,0,0,.055-1.1Z" transform="translate(996.063 -137.66)"/>
    <path id="Path_3173" data-name="Path 3173" class="cls-8" d="M838.759,564.739c.258-.927.439-1.86.675-2.744.9-1.416,1.723-2.2,2.393-2.2,2.53,0,3.875,8.639-1.306,25.137-.286.917-4.819,17.508-4.824,16.838C835.587,588.312,837.821,568.093,838.759,564.739Z" transform="translate(1019.96 -181.896)"/>
    <path id="Path_3174" data-name="Path 3174" class="cls-8" d="M868.942,564.241c-.2-.939-.472-1.85-.691-2.744.137-1.674.494-2.744,1.1-3.074,2.234-1.2,7.453,5.834,10.57,22.843.17.944,3.9,17.738,3.584,17.151C877.13,586.573,869.677,567.644,868.942,564.241Z" transform="translate(1005.271 -181.217)"/>
    <path id="Path_3175" data-name="Path 3175" class="cls-23" d="M854.72,451.049l1.147,1.542,3.008-2.612-1.07-1.109Z" transform="translate(1011.376 -131.849)"/>
    <path id="Path_3176" data-name="Path 3176" class="cls-23" d="M850.036,449.03l1.487,1.723L849.8,452.5l-.681-2.612Z" transform="translate(1013.902 -131.921)"/>
    <path id="Path_3177" data-name="Path 3177" class="cls-23" d="M854.137,473.418l-.971-.263c-1.647-7.058-2.552-14.368-.664-21.015a2.068,2.068,0,0,0,.961.225C851.547,459.149,852.447,466.2,854.137,473.418Z" transform="translate(1012.853 -133.324)"/>
    <path id="Path_3178" data-name="Path 3178" class="cls-15" d="M838.951,536.448a10.068,10.068,0,0,1-.181-1.9c.137-3.842,0-7.777.6-15.1a197.356,197.356,0,0,1,5.011-29.818,16.342,16.342,0,0,1,1.059-3.183c2.744-.384,5.521,1.482,8.359,2.283a27.659,27.659,0,0,1,2.58,7.042c3.084,12.623,4.627,19.9,5.444,26.015.829,5.927.922,10.68,1.345,13.841C855.361,548.654,847.282,524.4,838.951,536.448Z" transform="translate(1018.572 -148.775)"/>
    <path id="Path_3179" data-name="Path 3179" class="cls-8" d="M829.849,465.447s1.158-.346-.51-6.586A132.107,132.107,0,0,0,823.85,443.9l2.623,14.659S827.7,464.152,829.849,465.447Z" transform="translate(1025.303 -129.606)"/>
    <path id="Path_3180" data-name="Path 3180" class="cls-8" d="M825.448,443.974c-.708-2.975.346-4.566.488-5.845a22.5,22.5,0,0,1,.489-2.6c-1,.933-.807,1.9-1.065,2.47s-.1.4-.428-.642c-.187-.593.549-1.877.883-2.744a2.59,2.59,0,0,0,.247-1.191,12.588,12.588,0,0,0-1.35,2.157,15.583,15.583,0,0,0-1.153,3.436,13.112,13.112,0,0,0,.845,4.072C824.959,444.622,825.936,446.12,825.448,443.974Z" transform="translate(1025.434 -124.878)"/>
    <path id="Path_3181" data-name="Path 3181" class="cls-8" d="M823.686,440.055a17.99,17.99,0,0,1,.159-2.859c.126-.324.96-1.745.96-1.745a3.215,3.215,0,0,1-.225,1.471A27.13,27.13,0,0,0,823.686,440.055Z" transform="translate(1025.38 -125.794)"/>
    <path id="Path_3182" data-name="Path 3182" class="cls-18" d="M826.56,457.46a39.737,39.737,0,0,0,2.887,12.826c.225.587.456,1.169.692,1.734.357.862,1.866-.324,1.784-1.915-.154-3.068-1.372-6.586-3.1-11.163-.291-.779-.6-1.537-.917-2.272A11.609,11.609,0,0,0,826.56,457.46Z" transform="translate(1024.081 -135.368)"/>
    <path id="Path_3183" data-name="Path 3183" class="cls-8" d="M820.91,628.939a17.8,17.8,0,0,1,3.238.488c1.361.291,2.311.7,2.964.423,1.1-.466,1.893-5.176,2.042-8.595,0-.384,2.338-1.279,2.228-.856a59.347,59.347,0,0,0-1.6,9.786c-.23,1.3-.829,2.481-1.465,2.525-1.257.082-7.042-2.569-7.508-2.81S820.822,628.763,820.91,628.939Z" transform="translate(1026.767 -209.187)"/>
    <path id="Path_3184" data-name="Path 3184" class="cls-24" d="M897.942,633.1c.549,3.293.28,6.125-.6,6.273s-2.031-2.431-2.58-5.752-.285-6.125.593-6.268S897.393,629.781,897.942,633.1Z" transform="translate(993.438 -212.373)"/>
    <path id="Path_3185" data-name="Path 3185" class="cls-8" d="M895.613,627.108c.757,2.365.434,4.692-.445,4.841s-1.822-1.646-2.113-4.133c-.373-3.123-.176-4.435-1.191-6.13s-1.191-3.491-.966-3.754,1.41.4,1.564,1.306a8.835,8.835,0,0,0,1.015,2.8,23.706,23.706,0,0,1,2.135,5.066Z" transform="translate(995.092 -208.097)"/>
    <path id="Path_3186" data-name="Path 3186" class="cls-24" d="M819.8,635.97c-.922,1.257,3.617,2.5,4.885,2.613a13.457,13.457,0,0,1,1.937.269,1.007,1.007,0,0,0,.137.049.165.165,0,0,1-.027.11c-.324.768-.417,1.932-1.647,1.416l-7.717-3.244C811.064,634.527,819.818,635.943,819.8,635.97Z" transform="translate(1029.258 -216.081)"/>
    <path id="Path_3187" data-name="Path 3187" class="cls-25" d="M886.853,490.652c-8.633,7.722-20.675,8.622-26.893,2.009s-4.237-18.254,4.424-25.938,20.669-8.617,26.893-2S895.487,482.93,886.853,490.652Z" transform="translate(1010.647 -137.007)"/>
    <path id="Path_3188" data-name="Path 3188" class="cls-26" d="M884.7,486.629c-8.639,7.717-20.675,8.622-26.893,2.009s-4.248-18.238,4.391-25.954,20.669-8.617,26.893-2.009S893.332,478.907,884.7,486.629Z" transform="translate(1011.621 -135.179)"/>
    <path id="Path_3189" data-name="Path 3189" class="cls-25" d="M868.378,469.67c6.586-5.895,15.785-6.586,20.527-1.531a10.653,10.653,0,0,1,2.744,7.876,10.876,10.876,0,0,0-2.689-8.781c-4.742-5.049-13.935-4.391-20.527,1.526a17.39,17.39,0,0,0-6.1,11.937A17.823,17.823,0,0,1,868.378,469.67Z" transform="translate(1007.942 -138.604)"/>
    <path id="Path_3190" data-name="Path 3190" class="cls-25" d="M872.353,488.894a4.242,4.242,0,0,1-1.1-1.861,4.577,4.577,0,0,1-.115-2.1l1.224-.362a.868.868,0,0,1,.335,0,.549.549,0,0,1,.28.1.516.516,0,0,1,.148.428,7.18,7.18,0,0,0,.027.73,4.395,4.395,0,0,0,.176.917,2.59,2.59,0,0,0,.6.977l5.56-4.243a11.864,11.864,0,0,1-.6-1.246,3.54,3.54,0,0,1-.263-1.328,3.293,3.293,0,0,1,.4-1.432,5.488,5.488,0,0,1,1.35-1.559,7.01,7.01,0,0,1,1.646-1.032,6.318,6.318,0,0,1,1.872-.549,5.549,5.549,0,0,1,1.926.088,4.122,4.122,0,0,1,1.778.84l1.526-1.169a1.06,1.06,0,0,1,.45-.192A.5.5,0,0,1,890,476l.516.406-2.075,1.581a3.463,3.463,0,0,1,.878,1.57,4.988,4.988,0,0,1,.077,1.647l-.988.3a.758.758,0,0,1-.659-.033.467.467,0,0,1-.143-.318,3.792,3.792,0,0,0-.1-.549,5.646,5.646,0,0,0-.2-.686,2.379,2.379,0,0,0-.439-.73l-5.066,3.842c.23.417.434.845.626,1.279a3.512,3.512,0,0,1,.313,1.345,2.909,2.909,0,0,1-.318,1.421,4.447,4.447,0,0,1-1.257,1.509,8.346,8.346,0,0,1-1.915,1.24,7.057,7.057,0,0,1-2.064.637,6.086,6.086,0,0,1-2.069-.044,4.277,4.277,0,0,1-1.861-.856l-1.866,1.432a1.149,1.149,0,0,1-.456.187.549.549,0,0,1-.406-.093l-.516-.412Zm9.495-10.11a2.938,2.938,0,0,0-.7.807,1.916,1.916,0,0,0-.252.818,2.472,2.472,0,0,0,.071.823,6.079,6.079,0,0,0,.318.84l4.72-3.606a3.433,3.433,0,0,0-1.141-.472,3.135,3.135,0,0,0-1.1-.066,3.5,3.5,0,0,0-1.021.291A3.787,3.787,0,0,0,881.847,478.784Zm-2.267,9.006a2.742,2.742,0,0,0,.708-.84,1.952,1.952,0,0,0,.225-.829,2.525,2.525,0,0,0-.143-.84,7.135,7.135,0,0,0-.368-.862l-5.208,3.974a3.547,3.547,0,0,0,1.185.477,3.7,3.7,0,0,0,1.229.038,4.207,4.207,0,0,0,1.213-.362A5.182,5.182,0,0,0,879.581,487.791Z" transform="translate(1004.473 -144.041)"/>
    <path id="Path_3191" data-name="Path 3191" class="cls-25" d="M805.418,391.032c4.259,10.11.351,21.5-8.748,25.449s-19.923-1.054-24.187-11.163-.346-21.492,8.749-25.438S801.154,380.928,805.418,391.032Z" transform="translate(1049.256 -100.113)"/>
    <path id="Path_3192" data-name="Path 3192" class="cls-26" d="M807.517,388.318c4.264,10.1.351,21.5-8.749,25.444s-19.928-1.076-24.182-11.158-.346-21.5,8.748-25.444S803.247,378.208,807.517,388.318Z" transform="translate(1048.305 -98.886)"/>
    <path id="Path_3193" data-name="Path 3193" class="cls-25" d="M784.628,405.123c-3.26-7.717-.264-16.416,6.679-19.429a12.7,12.7,0,0,1,8.973-.4,12.788,12.788,0,0,0-9.835.093c-6.943,3.008-9.939,11.707-6.679,19.423a15.57,15.57,0,0,0,9.489,8.913A15.674,15.674,0,0,1,784.628,405.123Z" transform="translate(1043.982 -102.745)"/>
    <path id="Path_3194" data-name="Path 3194" class="cls-25" d="M805.911,410.459a4.313,4.313,0,0,1-2.129.417,4.671,4.671,0,0,1-2.014-.609l.082-1.273a.814.814,0,0,1,.088-.329.494.494,0,0,1,.192-.225.548.548,0,0,1,.456,0c.192.077.423.148.692.225a4.391,4.391,0,0,0,.922.148,2.547,2.547,0,0,0,1.125-.236l-2.086-6.674a11.555,11.555,0,0,1-1.378.137,3.481,3.481,0,0,1-1.339-.208,3.228,3.228,0,0,1-1.207-.862,5.542,5.542,0,0,1-1-1.806,6.922,6.922,0,0,1-.406-1.9,6.183,6.183,0,0,1,.148-1.937,5.489,5.489,0,0,1,.736-1.784,4.252,4.252,0,0,1,1.394-1.383l-.587-1.844a1.226,1.226,0,0,1,0-.488.549.549,0,0,1,.231-.368l.549-.34.774,2.486a3.463,3.463,0,0,1,1.778-.291,4.938,4.938,0,0,1,1.592.5l-.06,1.032a.746.746,0,0,1-.258.609.467.467,0,0,1-.346,0c-.154-.033-.335-.06-.549-.093a4.622,4.622,0,0,0-.708-.049,2.261,2.261,0,0,0-.84.165l1.9,6.081c.472-.077.944-.121,1.422-.154a3.469,3.469,0,0,1,1.367.165,2.9,2.9,0,0,1,1.229.785,4.576,4.576,0,0,1,.988,1.7,8.459,8.459,0,0,1,.51,2.2,7.4,7.4,0,0,1-.1,2.157,6.267,6.267,0,0,1-.752,1.932,4.253,4.253,0,0,1-1.443,1.454l.708,2.245a1,1,0,0,1,0,.494.5.5,0,0,1-.225.346l-.549.346Zm-6.257-12.376a3.036,3.036,0,0,0,.516.933,1.949,1.949,0,0,0,.681.516,2.478,2.478,0,0,0,.8.214,6.2,6.2,0,0,0,.9,0l-1.778-5.664a3.582,3.582,0,0,0-.834.906,3.3,3.3,0,0,0-.439,1.021,3.594,3.594,0,0,0-.077,1.059,3.741,3.741,0,0,0,.23,1Zm7.684,5.208a2.86,2.86,0,0,0-.549-.955,1.938,1.938,0,0,0-.7-.488,2.481,2.481,0,0,0-.84-.154,6.851,6.851,0,0,0-.933.044l1.954,6.257a3.509,3.509,0,0,0,.851-.955,3.438,3.438,0,0,0,.456-1.142,3.983,3.983,0,0,0,.077-1.262,5.07,5.07,0,0,0-.307-1.361Z" transform="translate(1037.019 -104.891)"/>
    <path id="Path_3195" data-name="Path 3195" class="cls-27" d="M656.272,531.05l1.515,11.114-7.053,1.822-3.754.115,7.283-3.639-1.915-9.473Z" transform="translate(1105.101 -168.898)"/>
    <path id="Path_3196" data-name="Path 3196" class="cls-15" d="M658.7,429.714S644.57,456,644.57,457.792s6.35,27.809,6.35,27.809l5.444.681s-3.337-22.925-2.744-25.246c.774-3.084,18.66-24.385,15.916-30.9S658.7,429.714,658.7,429.714Z" transform="translate(1106.188 -122.039)"/>
    <path id="Path_3197" data-name="Path 3197" class="cls-28" d="M656.593,552.319l-1.482.11-.8-1.026-6.257,1.85-3.979.313a3.09,3.09,0,0,1,.549-.823,22.177,22.177,0,0,1,3.612-1.679s-.06.911.4,1.026a34.7,34.7,0,0,0,5.8-1.482c1.762-.681,2.168-1.235,2.272-1.136C656.989,549.756,656.593,552.319,656.593,552.319Z" transform="translate(1106.409 -177.231)"/>
    <path id="Path_3198" data-name="Path 3198" class="cls-8" d="M597.913,464.135s-.318-.3-.549-.06a6.036,6.036,0,0,0-.955,1.811c-.148.417-.549,2.519-.549,2.519a2.5,2.5,0,0,0,.763-1.356A10.644,10.644,0,0,1,597.913,464.135Z" transform="translate(1128.164 -138.667)"/>
    <path id="Path_3199" data-name="Path 3199" class="cls-8" d="M598.5,464.013a3.144,3.144,0,0,0-.489,2.629,1.838,1.838,0,0,1-.346,1.548,13.51,13.51,0,0,1-.225-2.349,4.035,4.035,0,0,1,.148-1.411C598.056,463.107,599.939,462.509,598.5,464.013Z" transform="translate(1127.455 -138.281)"/>
    <path id="Path_3200" data-name="Path 3200" class="cls-8" d="M619.259,430.758c-1.339,4.264-12.448,13.172-12.448,13.172s-5.06,2.157,7.354-12.146C617.892,427.5,619.588,429.7,619.259,430.758Z" transform="translate(1123.684 -122.996)"/>
    <path id="Path_3201" data-name="Path 3201" class="cls-8" d="M598.714,459.016l-.264-.3.181-1.378a15.807,15.807,0,0,1,2.086-2.772c.779-.631,2.684-3.957,3.024-4.292s2.448.34,2.448.34-2.744,2.876-3.727,4.111A35.363,35.363,0,0,0,600.3,458.7c-.631.851-.906,1.312-.906,1.312s-.406-.4.5-1.784c.242-.368-.3-.439-.3-.439Z" transform="translate(1126.996 -132.44)"/>
    <path id="Path_3202" data-name="Path 3202" class="cls-8" d="M599.094,463.2a4.2,4.2,0,0,0-.724,1.7c0,.445.379,2.547.379,2.547a2.513,2.513,0,0,0,.247-1.537A8.468,8.468,0,0,1,599.094,463.2Z" transform="translate(1127.032 -138.314)"/>
    <path id="Path_3203" data-name="Path 3203" class="cls-17" d="M612.55,421.392,617,415.174s5.2-15.916,7.135-16.761a22.485,22.485,0,0,1,6.191-1.152L623.7,416.469l-3.99,7.733Z" transform="translate(1120.635 -108.564)"/>
    <path id="Path_3204" data-name="Path 3204" class="cls-25" d="M614.335,485.643a23.776,23.776,0,1,1-24.917-22.557A23.776,23.776,0,0,1,614.335,485.643Z" transform="translate(1141.269 -138.249)"/>
    <path id="Path_3205" data-name="Path 3205" class="cls-26" d="M611.415,485.272a23.776,23.776,0,1,1-24.928-22.557A23.776,23.776,0,0,1,611.415,485.272Z" transform="translate(1142.587 -138.082)"/>
    <path id="Path_3206" data-name="Path 3206" class="cls-25" d="M574.552,492.582a18.15,18.15,0,0,1,28.539-15.752,18.144,18.144,0,1,0-21.772,29,18.111,18.111,0,0,1-6.767-13.249Z" transform="translate(1138.244 -142.636)"/>
    <path id="Path_3207" data-name="Path 3207" class="cls-25" d="M599.336,505.06a9.758,9.758,0,0,1-3.469-.686,9.134,9.134,0,0,1-2.788-1.723l.724-1.323a.918.918,0,0,1,.3-.3.767.767,0,0,1,.406-.137,1.1,1.1,0,0,1,.692.247c.263.181.582.379.955.6a9.309,9.309,0,0,0,1.345.653,5.921,5.921,0,0,0,1.833.346v-8.249c-.735-.17-1.46-.357-2.2-.587a7.589,7.589,0,0,1-1.959-.933,5.026,5.026,0,0,1-1.443-1.57,5.61,5.61,0,0,1-.675-2.464,5.849,5.849,0,0,1,.28-2.25,5.644,5.644,0,0,1,1.158-2,6.336,6.336,0,0,1,1.981-1.515,7,7,0,0,1,2.81-.741v-2.272a1.016,1.016,0,0,1,.192-.549.7.7,0,0,1,.549-.269l1.021-.071v3.074a8,8,0,0,1,2.859.637,10.137,10.137,0,0,1,2.2,1.383l-.593,1.07a.89.89,0,0,1-.681.516,1.1,1.1,0,0,1-.549-.159c-.22-.115-.483-.241-.8-.4a11.052,11.052,0,0,0-1.1-.434,5.341,5.341,0,0,0-1.367-.269v7.525c.763.17,1.509.373,2.25.587a7.632,7.632,0,0,1,2.025.911,4.621,4.621,0,0,1,2.2,3.842,7.351,7.351,0,0,1-.285,2.656,6.431,6.431,0,0,1-1.191,2.25,6.9,6.9,0,0,1-2.08,1.647,7.189,7.189,0,0,1-2.909.8v2.777a.894.894,0,0,1-.2.549.7.7,0,0,1-.516.253l-1.021.071Zm-3.677-16.58a2.985,2.985,0,0,0,.351,1.273,2.931,2.931,0,0,0,.8.895,4.963,4.963,0,0,0,1.131.659,13.171,13.171,0,0,0,1.383.461v-7.009a5.667,5.667,0,0,0-1.712.549,3.841,3.841,0,0,0-1.164.856,3.063,3.063,0,0,0-.62,1.1A3.2,3.2,0,0,0,595.659,488.479Zm9.33,9.665a2.879,2.879,0,0,0-.384-1.312,2.94,2.94,0,0,0-.845-.9,5.225,5.225,0,0,0-1.213-.609c-.455-.165-.938-.318-1.46-.45v7.744a5.728,5.728,0,0,0,1.762-.549,4.145,4.145,0,0,0,1.246-.977,3.686,3.686,0,0,0,.724-1.317,4.4,4.4,0,0,0,.148-1.63Z" transform="translate(1129.435 -145.564)"/>
    <path id="Path_3208" data-name="Path 3208" class="cls-15" d="M606.28,383.351c2.826,3.485,8.457,3.9,12.574.917s5.159-8.232,2.332-11.718-8.463-3.9-12.579-.911S603.448,379.866,606.28,383.351Z" transform="translate(1124.182 -96.104)"/>
    <path id="Path_3209" data-name="Path 3209" class="cls-15" d="M624.235,385.44c1.647,2.162,5.192,2.245,7.887.176s3.512-5.488,1.849-7.684-5.192-2.245-7.881-.176S622.572,383.272,624.235,385.44Z" transform="translate(1115.749 -99.082)"/>
    <path id="Path_3210" data-name="Path 3210" class="cls-15" d="M618.835,394.678c2.256,2.744,6.652,3.134,9.813.895s3.9-6.257,1.646-8.99-6.652-3.134-9.813-.9S616.573,391.945,618.835,394.678Z" transform="translate(1118.389 -102.689)"/>
    <path id="Path_3211" data-name="Path 3211" class="cls-15" d="M633.875,383.96c1.647,2.162,5.192,2.245,7.881.176s3.518-5.488,1.855-7.684-5.192-2.245-7.881-.176S632.212,381.8,633.875,383.96Z" transform="translate(1111.4 -98.415)"/>
    <path id="Path_3212" data-name="Path 3212" class="cls-8" d="M608.9,382.08a11.163,11.163,0,0,0,1.219,1.015c2.958,2.129,6.443,2.5,8.364,1.037a17.219,17.219,0,0,0,3.644,2.486,8.414,8.414,0,0,0,3.562.549c2.075,1.476-1.323,10.159-1.465,9.731a25.052,25.052,0,0,0-2.2-6.416,5.538,5.538,0,0,0-3.842-2.58,4.583,4.583,0,0,0-3.408,1.246.67.67,0,0,1-.483.187,3.979,3.979,0,0,1-.955-.7l-3.293-3.26A3.941,3.941,0,0,1,608.9,382.08Z" transform="translate(1122.293 -101.715)"/>
    <path id="Path_3213" data-name="Path 3213" class="cls-29" d="M619.435,369.461c.8,2.788-2.163,6.092-6.625,7.376s-8.726.066-9.528-2.744,2.162-6.087,6.624-7.371S618.628,366.673,619.435,369.461Z" transform="translate(1124.875 -94.557)"/>
    <path id="Path_3214" data-name="Path 3214" class="cls-29" d="M628.079,369.325a5.225,5.225,0,0,0-3.535,6.487,5.4,5.4,0,0,0,.406,1.01,5.322,5.322,0,0,1,1.306-.593,5.214,5.214,0,0,1,6.037,2.6,5.258,5.258,0,0,0-4.215-9.506Z" transform="translate(1115.32 -95.876)"/>
    <path id="Path_3215" data-name="Path 3215" class="cls-29" d="M641.708,371.746a5.175,5.175,0,0,1-4.7-.966,5.241,5.241,0,1,0,7.684,3.057,5.307,5.307,0,0,0-1.745-2.645A4.818,4.818,0,0,1,641.708,371.746Z" transform="translate(1110.768 -96.617)"/>
    <path id="Path_3216" data-name="Path 3216" class="cls-27" d="M703.205,537.991l2.991,11.827-7.052,1.822-3.754.115,7.278-3.639L698.88,537.31Z" transform="translate(1083.26 -171.75)"/>
    <path id="Path_3217" data-name="Path 3217" class="cls-28" d="M704.808,561.069l-1.476.115-.8-1.026-5.658,1.592-4.808.231a.878.878,0,0,1,.2-.549c.708-.62,4.237-1.674,4.237-1.674s-.143,1.1.313,1.2a37.1,37.1,0,0,0,5.829-1.592c1.762-.691,2.168-1.24,2.272-1.141C705.2,558.484,704.808,561.069,704.808,561.069Z" transform="translate(1084.758 -181.179)"/>
    <path id="Path_3218" data-name="Path 3218" class="cls-13" d="M686.209,428.479c2.947,7.914-1.915,33.479-1.915,33.479s3.957,7.206,5.027,10.889c1.85,6.378,5.34,14.594,5.34,14.594l-5.889.241s-13.09-23.144-13.628-26.262-3-29.088.483-35.306S685.034,425.313,686.209,428.479Z" transform="translate(1093.001 -120.294)"/>
    <path id="Path_3219" data-name="Path 3219" class="cls-30" d="M657.7,427.221s-6.169,1.246-7.607,0c-1.882-1.647-.79-5.516-3.776-9.215s-4.193-4.654-5.444-5.428-2.98-1.4-3.567-3.183-1.647-4.654-1.389-5.236a7.241,7.241,0,0,0,.675-3.057C636.559,400.492,657.7,427.221,657.7,427.221Z" transform="translate(1110.11 -110.292)"/>
    <path id="Path_3220" data-name="Path 3220" class="cls-18" d="M657.293,423.688s-7.036-9.023-10.675-13.485-10.038-13.523-10.905-14.6a17.215,17.215,0,0,1-1.69-2.881s-.549-2.662,1-3.88,2.415-1.262,8.781.445c11.569,3.117,26.388,21.2,25.642,24.187a28.615,28.615,0,0,1-3.266.741S658.166,417.76,657.293,423.688Z" transform="translate(1110.99 -104.367)"/>
    <path id="Path_3221" data-name="Path 3221" class="cls-23" d="M634.2,387.93l-.329,1.915-.362,2.837,2.168,1.328-.016-5.922Z" transform="translate(1111.178 -104.355)"/>
    <path id="Path_3222" data-name="Path 3222" class="cls-8" d="M626.608,459.3c-1.443,3.331-3.573,4.1-4.61,5.208a26.772,26.772,0,0,1-2.316,2.13c1.613-.176,2.118-1.24,2.744-1.6s.379-.3-.049.917c-.247.7-1.839,1.411-2.8,2a3.117,3.117,0,0,0-1.1.955,15.02,15.02,0,0,0,2.815-1.1,18.455,18.455,0,0,0,3.535-2.448,15.814,15.814,0,0,0,2.086-4.467C627.508,459.018,627.64,456.894,626.608,459.3Z" transform="translate(1117.959 -136.069)"/>
    <path id="Path_3223" data-name="Path 3223" class="cls-8" d="M641.09,423.434s-1.345-.488-4.171,6.586a155.7,155.7,0,0,0-5.379,18.112l7.936-15.763S642.22,426.195,641.09,423.434Z" transform="translate(1112.067 -120.37)"/>
    <path id="Path_3224" data-name="Path 3224" class="cls-19" d="M638.158,426.512s2.667-6.586,6.147-4.94c1.976.944,2.2,2.717,1.328,4.7-1.564,3.677-3.518,7.788-3.518,7.788l-6.3.038Z" transform="translate(1110.136 -119.414)"/>
    <path id="Path_3225" data-name="Path 3225" class="cls-19" d="M640.488,409.314l-1.548-15.285s.456-1.937,1.915-2.239c2.1-.439,3.194.06,3.748,1.2,1.1,2.25.922,1.01,1.992,9.8.977,8.029,1.476,11.333-2.289,11.97C640.79,415.357,640.488,409.314,640.488,409.314Z" transform="translate(1108.728 -106.025)"/>
    <path id="Path_3226" data-name="Path 3226" class="cls-8" d="M624.544,472.62a20.851,20.851,0,0,1-2.338,2.475c-.357.2-2.2.845-2.2.845a3.842,3.842,0,0,1,1.323-1.158,31.255,31.255,0,0,0,3.211-2.163Z" transform="translate(1117.269 -142.564)"/>
    <path id="Path_3227" data-name="Path 3227" class="cls-15" d="M424.991,524.474a7.728,7.728,0,1,1-2.541-10.51A7.651,7.651,0,0,1,424.991,524.474Z" transform="translate(1211.736 -160.687)"/>
    <path id="Path_3228" data-name="Path 3228" class="cls-15" d="M427.1,540.172a9.753,9.753,0,1,1-3.205-13.271,9.648,9.648,0,0,1,3.205,13.271Z" transform="translate(1212.482 -166.385)"/>
    <path id="Path_3229" data-name="Path 3229" class="cls-14" d="M425.235,569.457s-.417,1.229,5.488,3.408a118.892,118.892,0,0,0,15.1,3.93l-13.145-6.312S427.54,568.315,425.235,569.457Z" transform="translate(1205.147 -186.103)"/>
    <path id="Path_3230" data-name="Path 3230" class="cls-14" d="M453.27,580.217c2.772,1.1,3.4,3,4.325,3.875a19.923,19.923,0,0,1,1.762,1.965c-.137-1.433-1.021-1.833-1.312-2.4s-.252-.324.763,0c.549.187,1.164,1.575,1.646,2.415a2.449,2.449,0,0,0,.8.917,13.241,13.241,0,0,0-.906-2.47,15.07,15.07,0,0,0-2.02-3.046,11.663,11.663,0,0,0-3.721-1.646C453.045,579.421,451.278,579.41,453.27,580.217Z" transform="translate(1192.896 -190.809)"/>
    <path id="Path_3231" data-name="Path 3231" class="cls-14" d="M462.92,583a16.467,16.467,0,0,1,2.168,1.833c.176.3.8,1.877.8,1.877a3,3,0,0,1-1.026-1.065A26.239,26.239,0,0,0,462.92,583Z" transform="translate(1188.142 -192.363)"/>
    <path id="Path_3232" data-name="Path 3232" class="cls-23" d="M426.357,566.577s-5.488-1.855-6.432,1.476c-.549,1.894.439,3.019,2.113,3.551,3.112.988,6.7,1.943,6.7,1.943l3.545-4.325Z" transform="translate(1207.609 -184.721)"/>
    <path id="Path_3233" data-name="Path 3233" class="cls-23" d="M427.016,545.837l.066-15.57s.549-4.018-.922-4.089c-2.108-.1-2.876,3.337-3.194,4.561a41.7,41.7,0,0,0-1.915,9.879c-.4,3.952-1.147,8.386-1.18,11.081-.027,1.855,1.981,0,3.842,0C427.246,551.738,427.016,545.837,427.016,545.837Z" transform="translate(1207.565 -166.726)"/>
    <path id="Path_3234" data-name="Path 3234" class="cls-15" d="M431.753,500.616a5.812,5.812,0,0,1-8.007,1.844l.231-3.112a5.8,5.8,0,0,1-1.844-8l1.153-1.85a5.812,5.812,0,0,1,8.008-1.844l1.235.768a5.812,5.812,0,0,1,1.844,8.007Z" transform="translate(1206.944 -148.947)"/>
    <path id="Path_3235" data-name="Path 3235" class="cls-23" d="M422.2,518.79s3,3.738,2.744,4.835a83.327,83.327,0,0,1-1.7,10.68c-1.3,4.885-2.047,6.037-2.558,9.665s.242,4.506-.549,8.93c-.609,3.458-1.482,6.476-1.482,6.476a2.9,2.9,0,0,1-2.684-1.142c-1.059-1.427.653-13.5,1.411-16.438s3.342-10.587,3.458-12.673-.033-7.135-.329-7.821C419.782,519.575,421.917,518.933,422.2,518.79Z" transform="translate(1209.475 -163.394)"/>
    <path id="Path_3236" data-name="Path 3236" class="cls-31" d="M478.48,641.536l3.962,11.7,7.118.911,3.683-.346-7.563-2.667-3.057-10.8Z" transform="translate(1181.122 -218.233)"/>
    <path id="Path_3237" data-name="Path 3237" class="cls-28" d="M485.778,664.911l.966-.121.653-1.1,5.73.862,4.725-.362a.873.873,0,0,0-.258-.5c-.774-.549-4.352-1.1-4.352-1.1s.274,1.037-.159,1.2a34.948,34.948,0,0,1-5.894-.84c-1.806-.456-2.706-1.015-2.651-.763C484.62,662.529,485.778,664.911,485.778,664.911Z" transform="translate(1178.39 -228.062)"/>
    <path id="Path_3238" data-name="Path 3238" class="cls-15" d="M426.31,590.857l12.662-1.191,9.621,28.759,5.406-1.5-8.726-34.308s-.746-2.2-5.829-2.744c-4.94-.521-24-.659-26.344-.269C407.578,580.55,415.849,588.179,426.31,590.857Z" transform="translate(1211.416 -190.731)"/>
    <path id="Path_3239" data-name="Path 3239" class="cls-15" d="M413.821,505.284a7.728,7.728,0,1,1-2.541-10.51A7.645,7.645,0,0,1,413.821,505.284Z" transform="translate(1216.775 -152.029)"/>
    <path id="Path_3240" data-name="Path 3240" class="cls-8" d="M431.333,496.56a10.875,10.875,0,0,1-.982,1.312c-2.481,2.854-5.9,4.05-8.189,3.035a17.567,17.567,0,0,1-3.084,3.375,8.839,8.839,0,0,1-3.458,1.411c-1.734,1.981-1.537,8.232,3.8,9.462,3.205.724,2.9-2.744,1.992-5.022a5.822,5.822,0,0,1-.637-2.815c.62-1.926,1.367-2.119,2.6-2.667a4.753,4.753,0,0,1,3.732.439.664.664,0,0,0,.549.077,4.014,4.014,0,0,0,.8-.933l2.541-4.061a4.1,4.1,0,0,0,.34-3.611Z" transform="translate(1209.922 -153.365)"/>
    <path id="Path_3241" data-name="Path 3241" class="cls-17" d="M404.29,559.463s2.415.768,3.068,1.1c.884.445,5.285-4.758,5.285-4.758s.06-8.128,1.2-12.673,2.464-5.67,2.607-7.135a15.917,15.917,0,0,0-.121-4.7c-.214-1.833,1.224-4.083.774-3.672-.73.664-3.293,1.548-5.307-1.218C411.447,525.951,404.29,559.463,404.29,559.463Z" transform="translate(1214.594 -166.828)"/>
    <path id="Path_3242" data-name="Path 3242" class="cls-23" d="M426.4,518.23a1.829,1.829,0,0,1-.466.406,7.469,7.469,0,0,0-1.1.79s.7-.252.895.351a11.421,11.421,0,0,1,.264,2.377s1.46-1.915,1.235-2.6C426.843,518.323,426.4,518.23,426.4,518.23Z" transform="translate(1205.323 -163.141)"/>
    <path id="Path_3243" data-name="Path 3243" class="cls-15" d="M404.968,522.884a8.068,8.068,0,1,1-4.281-10.428A7.986,7.986,0,0,1,404.968,522.884Z" transform="translate(1221.303 -160.238)"/>
    <path id="Path_3244" data-name="Path 3244" class="cls-31" d="M444.886,653.78l-.576,7.837,1.394,2.047,3.985,2.892,2.366-1.081L447.79,661.6l.944-7.881Z" transform="translate(1196.539 -224.27)"/>
    <path id="Path_3245" data-name="Path 3245" class="cls-28" d="M444.213,669.565l1.317,1.169.472-.3,3.666,2.909s3.485,1.317,4.264.576c.247-.236-1.125-1.575-1.855-2.256-.587-.549-.11.082-.11.082s-.231.593-1.646.681c-.461,0-3.074-2.13-3.984-2.711a10.889,10.889,0,0,1-2.294-2.228C443.757,667.765,444.213,669.565,444.213,669.565Z" transform="translate(1196.702 -230.477)"/>
    <path id="Path_3246" data-name="Path 3246" class="cls-13" d="M392.839,566.522l1.531,5.016,2.6,2.475,23.748,6.454s3.1.884,3.781,3.639c1.482,5.955-3.952,33.583-3.952,33.583l-4.155-.5.576-26.986s-22.865-1.142-30.406-4.363c-2.892-1.235-4.616-6.756-3.622-12.041a18.247,18.247,0,0,1,3.974-7.684Z" transform="translate(1224.355 -184.743)"/>
    <path id="Path_3247" data-name="Path 3247" class="cls-18" d="M396.067,553.165S398.624,541.5,399.958,536s2.162-14.9,2.475-16.223a19.59,19.59,0,0,1,1.218-3.183s-1.032-3.189-2.821-3.293c-1.57-.071-6.674,1.054-9.166,1.773-1.718.494-2.848,19.4-3.1,20.373-.911,3.513-3.1,7.42-4.539,10.132a41.045,41.045,0,0,0-2.2,5.433S390.952,550.909,396.067,553.165Z" transform="translate(1224.727 -160.914)"/>
    <path id="Path_3248" data-name="Path 3248" class="cls-23" d="M415.909,511.7l1.164,1.647s1.581,2.744,1.015,2.333c-.713-.549-1.872,2.036-1.872,2.036l-1.926-5.3Z" transform="translate(1210.083 -160.195)"/>
    <path id="Path_3249" data-name="Path 3249" class="cls-25" d="M450.914,572.861c-12.288,4.588-26.564,2.854-31.871-3.88s.362-15.916,12.656-20.493,26.558-2.848,31.865,3.886S463.208,568.267,450.914,572.861Z" transform="translate(1208.836 -175.639)"/>
    <path id="Path_3250" data-name="Path 3250" class="cls-26" d="M449.574,567.175c-12.294,4.583-26.564,2.848-31.871-3.88s.362-15.916,12.656-20.5,26.558-2.849,31.865,3.886S461.868,562.608,449.574,567.175Z" transform="translate(1209.441 -173.069)"/>
    <path id="Path_3251" data-name="Path 3251" class="cls-25" d="M437.4,548.992c9.385-3.5,20.279-2.2,24.33,2.969a6.723,6.723,0,0,1,.917,7.058,6.84,6.84,0,0,0-.582-7.777c-4.05-5.143-14.945-6.471-24.33-2.969-5.444,2.036-9.182,5.247-10.571,8.589C428.763,553.783,432.341,550.88,437.4,548.992Z" transform="translate(1204.276 -175.813)"/>
    <path id="Path_3252" data-name="Path 3252" class="cls-25" d="M438.19,564.1a3.764,3.764,0,0,1-.488-2.129,4.357,4.357,0,0,1,.691-2.064h1.465a1.055,1.055,0,0,1,.379.071.548.548,0,0,1,.263.187.461.461,0,0,1,0,.456c-.082.2-.165.439-.252.714a4.218,4.218,0,0,0-.165.944,2.3,2.3,0,0,0,.274,1.1l7.684-2.481a10.6,10.6,0,0,1-.17-1.378,3.293,3.293,0,0,1,.236-1.367,3.447,3.447,0,0,1,.988-1.273,7.076,7.076,0,0,1,2.069-1.1,9.417,9.417,0,0,1,2.2-.521,8.429,8.429,0,0,1,2.234.044,6.626,6.626,0,0,1,2.058.648,4.3,4.3,0,0,1,1.6,1.334l2.108-.686a1.65,1.65,0,0,1,.549-.055.587.587,0,0,1,.423.214l.4.549-2.859.928a3,3,0,0,1,.34,1.778,4.715,4.715,0,0,1-.549,1.647h-1.185a.851.851,0,0,1-.7-.22.434.434,0,0,1-.033-.357c.033-.154.066-.34.1-.549a4.183,4.183,0,0,0,.055-.724,2.114,2.114,0,0,0-.192-.84l-6.992,2.261a14.071,14.071,0,0,1,.181,1.427,3.183,3.183,0,0,1-.181,1.394,3.118,3.118,0,0,1-.895,1.284,5.8,5.8,0,0,1-1.948,1.1,11.6,11.6,0,0,1-2.563.637,9.632,9.632,0,0,1-2.481,0,7.492,7.492,0,0,1-2.228-.659,4.354,4.354,0,0,1-1.685-1.372l-2.58.84a1.333,1.333,0,0,1-.549.044.549.549,0,0,1-.4-.208l-.4-.549Zm14.22-7.014a3.843,3.843,0,0,0-1.1.549,2.2,2.2,0,0,0-.565.752,2.374,2.374,0,0,0-.242.823,5.61,5.61,0,0,0,0,.906L457.02,558a3.742,3.742,0,0,0-1.048-.79,4,4,0,0,0-1.175-.39,4.555,4.555,0,0,0-1.224,0A4.937,4.937,0,0,0,452.41,557.083Zm-5.955,8.068a3.5,3.5,0,0,0,1.1-.609,2.074,2.074,0,0,0,.549-.735,2.253,2.253,0,0,0,.17-.856,6.21,6.21,0,0,0-.055-.944l-7.184,2.327a3.717,3.717,0,0,0,1.1.807,4.385,4.385,0,0,0,1.317.4,5.142,5.142,0,0,0,1.454,0A6.877,6.877,0,0,0,446.455,565.151Z" transform="translate(1200.743 -179.822)"/>
    <path id="Path_3253" data-name="Path 3253" class="cls-8" d="M391.761,561.242s-2.2,1.246,5.488,2.87a161.189,161.189,0,0,0,19.363,2.278l-17.436-5.258S394.39,559.618,391.761,561.242Z" transform="translate(1220.378 -182.208)"/>
    <path id="Path_3254" data-name="Path 3254" class="cls-8" d="M425.088,569.256c3.639.878,4.786,2.9,6.1,3.765a26.4,26.4,0,0,1,2.563,1.97c-.461-1.6-1.647-1.926-2.1-2.525s-.379-.335.938-.11c.752.126,1.751,1.647,2.519,2.5a3.225,3.225,0,0,0,1.163.922,15.184,15.184,0,0,0-1.608-2.662,19.061,19.061,0,0,0-3.1-3.161,16.992,16.992,0,0,0-4.907-1.334C424.643,568.388,422.465,568.624,425.088,569.256Z" transform="translate(1205.755 -185.836)"/>
    <path id="Path_3255" data-name="Path 3255" class="cls-27" d="M437.5,571.15a21.839,21.839,0,0,1,3.03,1.762c.28.318,1.367,2.014,1.367,2.014a3.907,3.907,0,0,1-1.476-1.059,33.06,33.06,0,0,0-2.92-2.717Z" transform="translate(1199.611 -187.017)"/>
    <path id="Path_3256" data-name="Path 3256" class="cls-19" d="M395.544,539.642l4.347-16.866s-.252-3.595-1.218-4.94c-1.147-1.575-3.666-1.411-3.666-1.411s-3.15,2.069-4.8,15.614c-1.125,9.275-2.382,13,1.581,13.831,3.694.768,7.931,1.454,7.931,1.454l3.425-5.3Z" transform="translate(1221.452 -162.325)"/>
    <rect id="Rectangle_1709" data-name="Rectangle 1709" class="cls-26" width="3.573" height="5.642" transform="translate(1465.929 394.292)"/>
    <rect id="Rectangle_1710" data-name="Rectangle 1710" class="cls-26" width="3.584" height="5.642" transform="translate(1510.149 394.292)"/>
    <path id="Path_3257" data-name="Path 3257" class="cls-26" d="M173.4,591.542c0,5.379-10.708,9.747-23.9,9.747s-23.9-4.391-23.9-9.747,10.7-9.742,23.9-9.742S173.4,586.158,173.4,591.542Z" transform="translate(1340.329 -191.822)"/>
    <path id="Path_3258" data-name="Path 3258" class="cls-25" d="M173.4,581.987c0,5.379-10.708,9.742-23.9,9.742s-23.9-4.391-23.9-9.742,10.7-9.747,23.9-9.747S173.4,576.576,173.4,581.987Z" transform="translate(1340.329 -187.509)"/>
    <path id="Path_3259" data-name="Path 3259" class="cls-26" d="M172.489,582.273c0,3.485-8.425,6.3-18.814,6.3s-18.825-2.816-18.825-6.3S143.275,576,153.675,576,172.489,578.8,172.489,582.273Z" transform="translate(1336.156 -189.205)"/>
    <rect id="Rectangle_1711" data-name="Rectangle 1711" class="cls-26" width="3.573" height="5.642" transform="translate(1463.295 385.263)"/>
    <rect id="Rectangle_1712" data-name="Rectangle 1712" class="cls-26" width="3.578" height="5.642" transform="translate(1507.514 385.263)"/>
    <path id="Path_3260" data-name="Path 3260" class="cls-26" d="M168.6,575.087c0,5.379-10.7,9.753-23.9,9.753s-23.9-4.391-23.9-9.753,10.7-9.747,23.9-9.747S168.6,569.7,168.6,575.087Z" transform="translate(1342.495 -184.396)"/>
    <path id="Path_3261" data-name="Path 3261" class="cls-25" d="M168.6,565.482c0,5.4-10.7,9.747-23.9,9.747s-23.9-4.352-23.9-9.747,10.7-9.742,23.9-9.742S168.6,560.1,168.6,565.482Z" transform="translate(1342.495 -180.065)"/>
    <path id="Path_3262" data-name="Path 3262" class="cls-26" d="M167.689,565.821c0,3.479-8.425,6.3-18.814,6.3s-18.825-2.816-18.825-6.3,8.425-6.3,18.825-6.3S167.689,562.336,167.689,565.821Z" transform="translate(1338.322 -181.77)"/>
    <rect id="Rectangle_1713" data-name="Rectangle 1713" class="cls-26" width="3.578" height="5.642" transform="translate(1466.676 376.614)"/>
    <rect id="Rectangle_1714" data-name="Rectangle 1714" class="cls-26" width="3.573" height="5.642" transform="translate(1510.901 376.614)"/>
    <path id="Path_3263" data-name="Path 3263" class="cls-26" d="M174.758,559.327c0,5.384-10.7,9.747-23.891,9.747s-23.907-4.391-23.907-9.747,10.708-9.747,23.907-9.747S174.758,553.949,174.758,559.327Z" transform="translate(1339.716 -177.286)"/>
    <path id="Path_3264" data-name="Path 3264" class="cls-25" d="M174.758,549.731c0,5.384-10.7,9.747-23.891,9.747s-23.907-4.391-23.907-9.747S137.668,540,150.867,540,174.758,544.347,174.758,549.731Z" transform="translate(1339.716 -172.963)"/>
    <path id="Path_3265" data-name="Path 3265" class="cls-26" d="M173.859,550.041c0,3.48-8.425,6.306-18.814,6.306s-18.825-2.827-18.825-6.306,8.425-6.3,18.825-6.3S173.859,546.561,173.859,550.041Z" transform="translate(1335.538 -174.651)"/>
    <rect id="Rectangle_1715" data-name="Rectangle 1715" class="cls-26" width="3.573" height="5.642" transform="translate(1516.719 394.292)"/>
    <rect id="Rectangle_1716" data-name="Rectangle 1716" class="cls-26" width="3.584" height="5.642" transform="translate(1560.933 394.292)"/>
    <path id="Path_3266" data-name="Path 3266" class="cls-26" d="M265.938,591.542c0,5.379-10.708,9.747-23.9,9.747s-23.9-4.391-23.9-9.747,10.691-9.742,23.9-9.742S265.938,586.158,265.938,591.542Z" transform="translate(1298.578 -191.822)"/>
    <path id="Path_3267" data-name="Path 3267" class="cls-25" d="M265.938,581.987c0,5.379-10.708,9.742-23.9,9.742s-23.9-4.391-23.9-9.742,10.691-9.747,23.9-9.747S265.938,576.576,265.938,581.987Z" transform="translate(1298.578 -187.509)"/>
    <path id="Path_3268" data-name="Path 3268" class="cls-26" d="M265.059,582.273c0,3.485-8.425,6.3-18.814,6.3s-18.825-2.816-18.825-6.3,8.4-6.273,18.8-6.273S265.059,578.8,265.059,582.273Z" transform="translate(1294.392 -189.205)"/>
    <rect id="Rectangle_1717" data-name="Rectangle 1717" class="cls-26" width="3.573" height="5.637" transform="translate(1516.598 386.526)"/>
    <rect id="Rectangle_1718" data-name="Rectangle 1718" class="cls-26" width="3.578" height="5.637" transform="translate(1560.818 386.526)"/>
    <path id="Path_3269" data-name="Path 3269" class="cls-26" d="M265.708,577.383c0,5.378-10.7,9.747-23.9,9.747s-23.9-4.391-23.9-9.747,10.7-9.753,23.9-9.753S265.708,572,265.708,577.383Z" transform="translate(1298.682 -185.429)"/>
    <path id="Path_3270" data-name="Path 3270" class="cls-25" d="M265.708,567.764c0,5.39-10.7,9.747-23.9,9.747s-23.9-4.358-23.9-9.747S228.612,558,241.817,558,265.708,562.391,265.708,567.764Z" transform="translate(1298.682 -181.084)"/>
    <path id="Path_3271" data-name="Path 3271" class="cls-26" d="M264.815,568.105c0,3.48-8.43,6.3-18.82,6.3s-18.825-2.821-18.825-6.3,8.425-6.3,18.825-6.3S264.815,564.659,264.815,568.105Z" transform="translate(1294.505 -182.803)"/>
    <rect id="Rectangle_1719" data-name="Rectangle 1719" class="cls-26" width="3.573" height="5.648" transform="translate(1516.203 379.133)"/>
    <rect id="Rectangle_1720" data-name="Rectangle 1720" class="cls-26" width="3.573" height="5.648" transform="translate(1560.428 379.133)"/>
    <path id="Path_3272" data-name="Path 3272" class="cls-26" d="M264.993,563.912c0,5.389-10.7,9.758-23.891,9.758s-23.9-4.391-23.9-9.758,10.7-9.742,23.9-9.742S264.993,558.539,264.993,563.912Z" transform="translate(1299.003 -179.356)"/>
    <path id="Path_3273" data-name="Path 3273" class="cls-25" d="M264.993,554.307c0,5.384-10.7,9.747-23.891,9.747s-23.9-4.391-23.9-9.747,10.7-9.747,23.9-9.747S264.993,548.923,264.993,554.307Z" transform="translate(1299.003 -175.021)"/>
    <path id="Path_3274" data-name="Path 3274" class="cls-26" d="M264.059,554.635c0,3.48-8.419,6.3-18.814,6.3s-18.825-2.821-18.825-6.3,8.43-6.3,18.825-6.3S264.059,551.155,264.059,554.635Z" transform="translate(1294.843 -176.726)"/>
    <rect id="Rectangle_1721" data-name="Rectangle 1721" class="cls-26" width="3.573" height="5.642" transform="translate(1516.719 372.871)"/>
    <rect id="Rectangle_1722" data-name="Rectangle 1722" class="cls-26" width="3.584" height="5.642" transform="translate(1560.933 372.871)"/>
    <path id="Path_3275" data-name="Path 3275" class="cls-26" d="M265.938,552.517c0,5.373-10.708,9.747-23.9,9.747s-23.9-4.391-23.9-9.747,10.691-9.747,23.9-9.747S265.938,547.133,265.938,552.517Z" transform="translate(1298.578 -174.213)"/>
    <path id="Path_3276" data-name="Path 3276" class="cls-25" d="M265.938,542.907c0,5.384-10.708,9.747-23.9,9.747s-23.9-4.363-23.9-9.747,10.691-9.747,23.9-9.747S265.938,537.523,265.938,542.907Z" transform="translate(1298.578 -169.877)"/>
    <path id="Path_3277" data-name="Path 3277" class="cls-26" d="M265.059,543.235c0,3.485-8.425,6.3-18.814,6.3s-18.825-2.816-18.825-6.3,8.425-6.3,18.825-6.3S265.059,539.755,265.059,543.235Z" transform="translate(1294.392 -171.583)"/>
    <rect id="Rectangle_1723" data-name="Rectangle 1723" class="cls-26" width="3.573" height="5.642" transform="translate(1517.854 366.367)"/>
    <rect id="Rectangle_1724" data-name="Rectangle 1724" class="cls-26" width="3.578" height="5.642" transform="translate(1562.08 366.367)"/>
    <path id="Path_3278" data-name="Path 3278" class="cls-26" d="M268.008,540.647c0,5.384-10.7,9.753-23.891,9.753s-23.907-4.391-23.907-9.753,10.7-9.747,23.907-9.747S268.008,535.269,268.008,540.647Z" transform="translate(1297.645 -168.858)"/>
    <path id="Path_3279" data-name="Path 3279" class="cls-25" d="M268.008,531.047c0,5.384-10.7,9.753-23.891,9.753s-23.907-4.391-23.907-9.753,10.7-9.747,23.907-9.747S268.008,525.663,268.008,531.047Z" transform="translate(1297.645 -164.527)"/>
    <path id="Path_3280" data-name="Path 3280" class="cls-26" d="M267.109,531.375c0,3.48-8.425,6.3-18.814,6.3s-18.825-2.821-18.825-6.3,8.425-6.3,18.825-6.3S267.109,527.9,267.109,531.375Z" transform="translate(1293.467 -166.232)"/>
    <rect id="Rectangle_1725" data-name="Rectangle 1725" class="cls-26" width="3.573" height="5.642" transform="translate(1516.203 357.712)"/>
    <rect id="Rectangle_1726" data-name="Rectangle 1726" class="cls-26" width="3.573" height="5.642" transform="translate(1560.428 357.712)"/>
    <path id="Path_3281" data-name="Path 3281" class="cls-26" d="M264.993,524.887c0,5.384-10.7,9.747-23.891,9.747s-23.9-4.363-23.9-9.747,10.7-9.747,23.9-9.747S264.993,519.509,264.993,524.887Z" transform="translate(1299.003 -161.747)"/>
    <path id="Path_3282" data-name="Path 3282" class="cls-25" d="M264.993,515.287c0,5.384-10.7,9.747-23.891,9.747s-23.9-4.363-23.9-9.747,10.7-9.747,23.9-9.747S264.993,509.9,264.993,515.287Z" transform="translate(1299.003 -157.416)"/>
    <path id="Path_3283" data-name="Path 3283" class="cls-26" d="M264.059,515.611c0,3.474-8.419,6.3-18.814,6.3s-18.825-2.821-18.825-6.3,8.43-6.3,18.825-6.3S264.059,512.131,264.059,515.611Z" transform="translate(1294.843 -159.117)"/>
    <path id="Path_3284" data-name="Path 3284" class="cls-25" d="M233.146,520.182a1.093,1.093,0,0,1-.494-1.1,1.613,1.613,0,0,1,.889-.933l1.723.137a3.441,3.441,0,0,1,.445.071.873.873,0,0,1,.3.115c.088.06.077.132,0,.219a3.509,3.509,0,0,0-.324.318.972.972,0,0,0-.231.439c-.038.17.06.357.28.549l9.105-.478a2.551,2.551,0,0,1-.143-.686.812.812,0,0,1,.329-.637,3.236,3.236,0,0,1,1.207-.522,15.029,15.029,0,0,1,2.475-.346c.812-.055,1.679-.071,2.585-.044a25.189,25.189,0,0,1,2.623.23,16.8,16.8,0,0,1,2.387.505,6.334,6.334,0,0,1,1.833.8l2.5-.137a4.445,4.445,0,0,1,.664.027,1.174,1.174,0,0,1,.488.143l.45.3-3.4.176c.335.329.45.626.335.889a1.8,1.8,0,0,1-.73.741l-1.394-.115a1.982,1.982,0,0,1-.812-.176c-.06-.038-.071-.093,0-.17a2.674,2.674,0,0,0,.148-.263.945.945,0,0,0,.088-.34.549.549,0,0,0-.192-.423l-8.3.434a3.293,3.293,0,0,1,.159.708.735.735,0,0,1-.269.653,2.562,2.562,0,0,1-1.1.549,12.142,12.142,0,0,1-2.333.346q-1.509.1-3.03.066a25.846,25.846,0,0,1-2.942-.165,19.537,19.537,0,0,1-2.585-.549,6.762,6.762,0,0,1-1.926-.823l-3.063.165a3.923,3.923,0,0,1-.67-.033,1.154,1.154,0,0,1-.467-.137l-.45-.3Zm16.964-2.052a7.4,7.4,0,0,0-1.273.181,2.193,2.193,0,0,0-.724.285.813.813,0,0,0-.318.379,1.174,1.174,0,0,0,0,.439l7.728-.412a6.452,6.452,0,0,0-1.2-.483,10.245,10.245,0,0,0-1.361-.3,13.56,13.56,0,0,0-1.432-.121,13.269,13.269,0,0,0-1.416.027Zm-7.3,3.337a7.431,7.431,0,0,0,1.306-.192,1.911,1.911,0,0,0,.692-.3.609.609,0,0,0,.236-.4,1.345,1.345,0,0,0-.033-.461l-8.54.45a6.59,6.59,0,0,0,1.262.494,11.109,11.109,0,0,0,1.531.313,15.229,15.229,0,0,0,1.712.143c.6.005,1.207.005,1.833-.044Z" transform="translate(1293.539 -162.711)"/>
    <path id="Path_3285" data-name="Path 3285" class="cls-26" d="M318.393,556.766a23.9,23.9,0,1,1-23.9-23.9A23.9,23.9,0,0,1,318.393,556.766Z" transform="translate(1274.91 -169.746)"/>
    <path id="Path_3286" data-name="Path 3286" class="cls-26" d="M317.48,560.939a18.825,18.825,0,1,1-18.821-18.819,18.825,18.825,0,0,1,18.821,18.819Z" transform="translate(1270.746 -173.92)"/>
    <path id="Path_3287" data-name="Path 3287" class="cls-25" d="M306.736,575.506a9.551,9.551,0,0,1-3.414-.927,9.153,9.153,0,0,1-2.662-1.91l.818-1.273a.862.862,0,0,1,.313-.28.817.817,0,0,1,.417-.11,1.1,1.1,0,0,1,.67.3c.252.2.549.423.917.675a8.931,8.931,0,0,0,1.3.741,5.825,5.825,0,0,0,1.8.472l.576-8.232c-.719-.22-1.427-.461-2.124-.735a7.681,7.681,0,0,1-1.888-1.1,5.084,5.084,0,0,1-1.334-1.647,5.637,5.637,0,0,1-.5-2.508,5.824,5.824,0,0,1,.445-2.2,5.576,5.576,0,0,1,1.29-1.91,6.364,6.364,0,0,1,2.086-1.378,7.133,7.133,0,0,1,2.848-.549l.154-2.267a.939.939,0,0,1,.23-.521.691.691,0,0,1,.549-.231h1.026l-.214,3.068a7.758,7.758,0,0,1,2.8.834,9.664,9.664,0,0,1,2.108,1.537l-.664,1.021a.884.884,0,0,1-.714.466,1.1,1.1,0,0,1-.549-.2c-.209-.126-.461-.274-.774-.45a10.108,10.108,0,0,0-1.032-.5,5.3,5.3,0,0,0-1.345-.368l-.521,7.508c.746.225,1.482.477,2.2.746a7.487,7.487,0,0,1,1.954,1.048,4.654,4.654,0,0,1,1.4,1.592,4.714,4.714,0,0,1,.549,2.387,7.3,7.3,0,0,1-.467,2.629,6.4,6.4,0,0,1-1.35,2.163,6.933,6.933,0,0,1-2.2,1.515,7.02,7.02,0,0,1-2.953.587l-.181,2.744a.938.938,0,0,1-.247.549.686.686,0,0,1-.549.214h-1.032Zm-2.508-16.794a2.981,2.981,0,0,0,.263,1.3,2.832,2.832,0,0,0,.73.966,5.2,5.2,0,0,0,1.1.736,13.185,13.185,0,0,0,1.345.549l.477-6.992a5.665,5.665,0,0,0-1.751.406,3.771,3.771,0,0,0-1.218.774,3.137,3.137,0,0,0-.7,1.043A3.249,3.249,0,0,0,304.227,558.712ZM312.833,569a2.932,2.932,0,0,0-.291-1.334,2.892,2.892,0,0,0-.779-.955,5.23,5.23,0,0,0-1.164-.7c-.445-.192-.917-.379-1.427-.549l-.549,7.722a5.745,5.745,0,0,0,1.8-.439,4.177,4.177,0,0,0,1.312-.895,3.573,3.573,0,0,0,.812-1.257,4.538,4.538,0,0,0,.285-1.6Z" transform="translate(1261.348 -177.438)"/>
    <path id="Path_3288" data-name="Path 3288" class="cls-25" d="M282.548,563.344a18.15,18.15,0,0,1,28.539-15.752,18.144,18.144,0,1,0-21.794,28.995,18.111,18.111,0,0,1-6.745-13.243Z" transform="translate(1269.944 -174.595)"/>
    <rect id="Rectangle_1727" data-name="Rectangle 1727" class="cls-26" width="3.573" height="5.642" transform="translate(1415.228 394.912)"/>
    <rect id="Rectangle_1728" data-name="Rectangle 1728" class="cls-26" width="3.573" height="5.642" transform="translate(1459.453 394.912)"/>
    <path id="Path_3289" data-name="Path 3289" class="cls-26" d="M81.018,592.667c0,5.384-10.7,9.747-23.891,9.747s-23.907-4.391-23.907-9.747,10.7-9.747,23.907-9.747S81.018,587.283,81.018,592.667Z" transform="translate(1382.008 -192.327)"/>
    <path id="Path_3290" data-name="Path 3290" class="cls-25" d="M81.018,583.057c0,5.384-10.7,9.747-23.891,9.747s-23.907-4.391-23.907-9.747,10.7-9.747,23.907-9.747S81.018,577.673,81.018,583.057Z" transform="translate(1382.008 -187.992)"/>
    <path id="Path_3291" data-name="Path 3291" class="cls-26" d="M80.114,583.385c0,3.48-8.419,6.3-18.809,6.3s-18.825-2.821-18.825-6.3,8.425-6.295,18.825-6.295S80.114,579.906,80.114,583.385Z" transform="translate(1377.83 -189.697)"/>
    <path id="Path_3292" data-name="Path 3292" class="cls-25" d="M49.175,587.946c-.423-.379-.587-.735-.488-1.1a1.6,1.6,0,0,1,.884-.933l1.729.143a2.613,2.613,0,0,1,.439.071,1.14,1.14,0,0,1,.3.11c.088.06.077.132,0,.22a4.473,4.473,0,0,0-.324.324,1.027,1.027,0,0,0-.23.439c-.033.165.06.351.28.549l9.105-.477a2.557,2.557,0,0,1-.143-.68.8.8,0,0,1,.329-.637,3.3,3.3,0,0,1,1.207-.549,13.908,13.908,0,0,1,2.475-.346,25.016,25.016,0,0,1,2.585-.044,22.452,22.452,0,0,1,2.623.23,16.476,16.476,0,0,1,2.387.5,6.658,6.658,0,0,1,1.806.889l2.5-.132a3.906,3.906,0,0,1,.67,0,1.1,1.1,0,0,1,.483.143l.45.3-3.392.181c.329.329.445.626.329.889a1.811,1.811,0,0,1-.724.741l-1.394-.115a2.081,2.081,0,0,1-.812-.176c-.066-.044-.071-.1,0-.176a2.521,2.521,0,0,0,.148-.258.972.972,0,0,0,.093-.346.6.6,0,0,0-.2-.423l-8.3.434a3.364,3.364,0,0,1,.159.708.747.747,0,0,1-.269.659,2.563,2.563,0,0,1-1.1.549,11.206,11.206,0,0,1-2.333.346,29.358,29.358,0,0,1-3.03.071,28.456,28.456,0,0,1-2.914-.225,19.443,19.443,0,0,1-2.59-.549,6.463,6.463,0,0,1-1.926-.823l-3.062.165a3.947,3.947,0,0,1-.67-.027,1.179,1.179,0,0,1-.461-.137l-.45-.3Zm16.964-2.053a8.073,8.073,0,0,0-1.273.176,2.193,2.193,0,0,0-.724.291.757.757,0,0,0-.313.373,1.1,1.1,0,0,0,0,.439l7.728-.406a6.1,6.1,0,0,0-1.2-.483,10.256,10.256,0,0,0-1.361-.3,12.194,12.194,0,0,0-1.432-.121A13.26,13.26,0,0,0,66.14,585.894Zm-7.3,3.331a7.108,7.108,0,0,0,1.312-.192,1.919,1.919,0,0,0,.686-.3.609.609,0,0,0,.236-.4,1.208,1.208,0,0,0-.033-.461l-8.534.428a6.01,6.01,0,0,0,1.262.488,10.921,10.921,0,0,0,1.531.318,15.015,15.015,0,0,0,1.707.137,13.634,13.634,0,0,0,1.833-.022Z" transform="translate(1376.535 -193.276)"/>
    <path id="Path_3293" data-name="Path 3293" class="cls-8" d="M189.721,513.758s4.352,9.758-3.436,15.417c-2.316,1.68.379,1.043,2.936.181s8.233-6.537,8.474-13.276-.165-9.33-2.157-10.686S189.721,513.758,189.721,513.758Z" transform="translate(1313.348 -157.292)"/>
    <path id="Path_3294" data-name="Path 3294" class="cls-15" d="M146.553,518.872l27.711,12-8.65,1.169s-26.344,4.44-26.767-5.335S146.553,518.872,146.553,518.872Z" transform="translate(1334.36 -163.36)"/>
    <path id="Path_3295" data-name="Path 3295" class="cls-13" d="M119.374,532.612c-.06.675.274,4.33,1.18,5.444,2.8,3.452,7.684-.675,12.047-1.646.23-.049,5.444-7.75,5.444-7.75l1.575-4.72-18.523.67S119.9,527,119.374,532.612Z" transform="translate(1343.141 -165.718)"/>
    <path id="Path_3296" data-name="Path 3296" class="cls-15" d="M135.918,547.977s-1.74-1.553-.357-2.316c4.149-2.278,16.119-5.8,21.514-5.96,7.19-.214,9.555-.258,9.555-.258s4.539-.159,6.081.856c3.167,2.1-.884,7.788-.884,7.788Z" transform="translate(1336.076 -172.708)"/>
    <path id="Path_3297" data-name="Path 3297" class="cls-32" d="M134,550.41l-2.113.417v2.157l.642.132A9.812,9.812,0,0,0,131.9,555c0,.406.038,5.527.038,5.527h.774s1.246-5.883,2.415-6.751c.027,0-.456-.291-.582-.664A19.889,19.889,0,0,1,134,550.41Z" transform="translate(1337.492 -177.66)"/>
    <path id="Path_3298" data-name="Path 3298" class="cls-33" d="M88.283,630.51a3.149,3.149,0,0,1,1.1-2.448c1.427-1.526,1.723-1.18,1.723-1.18l.549,2.9Z" transform="translate(1357.17 -212.146)"/>
    <path id="Path_3299" data-name="Path 3299" class="cls-23" d="M181.941,479.578s.774-5.154,8.414,4.391a24.2,24.2,0,0,1,4.841,11.619l-.829,5.45-9.528.466-.3-4.391.62-.368a1.646,1.646,0,0,0-.335-1.46,75.843,75.843,0,0,0-6.976-8.875C175.689,484.062,181.249,480.022,181.941,479.578Z" transform="translate(1316.979 -145.076)"/>
    <path id="Path_3300" data-name="Path 3300" class="cls-23" d="M194.428,507.56l-2.245.79-.884.373a1.773,1.773,0,0,1,.154,1.235l1.575-.922,2.053-.741,2.969-.126Z" transform="translate(1310.688 -158.327)"/>
    <path id="Path_3301" data-name="Path 3301" class="cls-8" d="M152.7,531.975s.285-1.646-1.229-1.932-5.313.873-5.313.873a18.263,18.263,0,0,0,1.85.615c1.1.3,2.4.549,2.4.549Z" transform="translate(1331.053 -168.45)"/>
    <path id="Path_3302" data-name="Path 3302" class="cls-18" d="M141.055,504.915l-20.515-3.447s8.908-17.14,11.076-20.159c2.706-3.759,8.414-6.954,8.414-6.954s8.37-2.848,13.073-.247c6.822,3.781,8.71,5.812,8.71,5.812S159.76,495.294,141.055,504.915Z" transform="translate(1342.612 -142.742)"/>
    <path id="Path_3303" data-name="Path 3303" class="cls-34" d="M150.73,505.417l1.383,1.142A93.176,93.176,0,0,0,166.6,476.85l-1.493-.34a90.947,90.947,0,0,1-14.379,28.907Z" transform="translate(1328.992 -144.319)"/>
    <path id="Path_3304" data-name="Path 3304" class="cls-13" d="M93.48,607.947l-3.54-1.273s6.449-14.462,10.066-18.463a52.54,52.54,0,0,1,9.122-8.161l7.135,3.293Z" transform="translate(1356.418 -191.033)"/>
    <path id="Path_3305" data-name="Path 3305" class="cls-13" d="M134.56,535.631l-4.874,24.632-6.992-2.991s-7.8-25.7,1.712-27.991S134.56,535.631,134.56,535.631Z" transform="translate(1342.999 -167.953)"/>
    <path id="Path_3306" data-name="Path 3306" class="cls-8" d="M173.421,548.07l5.027,3.238,3.293.181s-.115.439-.241.483a13.237,13.237,0,0,1-3.513,0,13.348,13.348,0,0,0-2.678-.549c-.681.044-2.536.878-2.645.7-.39-.637.549-.494.834-.933a2.7,2.7,0,0,0,.2-1.592Z" transform="translate(1319.138 -176.604)"/>
    <path id="Path_3307" data-name="Path 3307" class="cls-8" d="M151.23,527.7l10.378,11.63.906,1.394a4.943,4.943,0,0,0-1.273-.845c-2.2-.675-9.259-3.875-11.449-5.867a32.986,32.986,0,0,1-4.632-5.362Z" transform="translate(1331.505 -167.414)"/>
    <path id="Path_3308" data-name="Path 3308" class="cls-19" d="M151.5,486.76l-2.267,15.417-1,.642.79.845-6,2.239-3.622-4.2,3.491-21A9.829,9.829,0,0,1,151,474.164C154.169,473.824,151.634,485.492,151.5,486.76Z" transform="translate(1334.103 -143.257)"/>
    <path id="Path_3309" data-name="Path 3309" class="cls-23" d="M144.17,525.969s4.391,0,6.652-.1l-.439.28.79.845-2.08.763-3.106.664-.708-1.059.867-.406Z" transform="translate(1331.951 -166.588)"/>
    <path id="Path_3310" data-name="Path 3310" class="cls-15" d="M174.383,459.408a1.839,1.839,0,0,1-1.394,2.2l-6.751,1.482a1.833,1.833,0,0,1-2.2-1.394h0a1.833,1.833,0,0,1,1.394-2.2l6.745-1.482a1.839,1.839,0,0,1,2.2,1.4Z" transform="translate(1323.006 -135.954)"/>
    <path id="Path_3311" data-name="Path 3311" class="cls-15" d="M173.515,464.539a3.381,3.381,0,0,1-2.574,4.028l-3.523.774a3.375,3.375,0,0,1-4.023-2.574h0a3.381,3.381,0,0,1,2.574-4.028l3.523-.774A3.381,3.381,0,0,1,173.515,464.539Z" transform="translate(1323.314 -137.721)"/>
    <path id="Path_3312" data-name="Path 3312" class="cls-8" d="M181.262,466.27l-2.272-10.318c-.362-1.647-1.334.291-2.975.653l-1.586.351a3.046,3.046,0,0,0-2.327,3.628l1.646,7.343Z" transform="translate(1319.381 -134.749)"/>
    <path id="Path_3313" data-name="Path 3313" class="cls-8" d="M173.307,467.736a1.339,1.339,0,0,1-1.015,1.6h0a1.339,1.339,0,0,1-1.6-1.021h0a1.339,1.339,0,0,1,1.021-1.6h0a1.339,1.339,0,0,1,1.592,1.021Z" transform="translate(1319.999 -139.886)"/>
    <path id="Path_3314" data-name="Path 3314" class="cls-8" d="M185.407,466.459a.757.757,0,0,0,.9.6l.609-.132a.763.763,0,0,0,.549-.922s-2.2-3.622-2.6-3.534a1.262,1.262,0,0,0-.165.834Z" transform="translate(1313.672 -137.983)"/>
    <path id="Path_3315" data-name="Path 3315" class="cls-15" d="M177.8,474.933c-2.98.659-3.491-.187-3.8-1.213a22.437,22.437,0,0,0-.038,3.628l.209.944c.4,1.811,2.591,2.87,4.89,2.365l4.166-.917-1.015-4.627-.241-1.1Z" transform="translate(1318.539 -143.06)"/>
    <path id="Path_3316" data-name="Path 3316" class="cls-15" d="M184.581,470.77l-2.382.549a2.042,2.042,0,0,0-1.548,2.426,2,2,0,0,0,.181.478l4.3-.944Z" transform="translate(1315.513 -141.729)"/>
    <path id="Path_3317" data-name="Path 3317" class="cls-8" d="M183.08,475.331l.148.664a.34.34,0,0,0,.4.258l1.932-.423a.346.346,0,0,0,.258-.406l-.148-.664Z" transform="translate(1314.396 -143.529)"/>
    <path id="Path_3318" data-name="Path 3318" class="cls-15" d="M176.312,453.56l-6.1,1.339a1.224,1.224,0,0,0-.928,1.454l.549,2.382,7.3-1.6Z" transform="translate(1320.632 -133.965)"/>
    <path id="Path_3319" data-name="Path 3319" class="cls-15" d="M183.322,454.093a1.839,1.839,0,0,1-1.4,2.2l-4.133.911a1.844,1.844,0,0,1-2.2-1.405h0A1.839,1.839,0,0,1,177,453.6l4.133-.906a1.833,1.833,0,0,1,2.2,1.4Z" transform="translate(1317.793 -133.553)"/>
    <rect id="Rectangle_1729" data-name="Rectangle 1729" class="cls-15" width="1.69" height="4.446" transform="translate(1490.961 323.75) rotate(-12.4)"/>
    <rect id="Rectangle_1730" data-name="Rectangle 1730" class="cls-15" width="4.972" height="5.236" transform="translate(1491.043 321.782) rotate(-12.41)"/>
    <path id="Path_3320" data-name="Path 3320" class="cls-8" d="M175.482,463.775a2.519,2.519,0,0,1,1.915-3l1.268-.274c1.356-.3,2.327.642,2.623,2h0a2.514,2.514,0,0,1-1.915,3l-.889.192a2.514,2.514,0,0,1-3-1.921Z" transform="translate(1317.851 -137.072)"/>
    <path id="Path_3321" data-name="Path 3321" class="cls-32" d="M87.839,630.71l-.549,2,1.619.812.4-.549a10,10,0,0,0,1.416,1.4,4.931,4.931,0,0,0,.971.472,24.258,24.258,0,0,0,4.517.082l.34-.7a5.324,5.324,0,0,1-3.979-1.2,5.707,5.707,0,0,1-1.531-2.1,1.922,1.922,0,0,1-.851.231C89.167,631.045,88.421,630.743,87.839,630.71Z" transform="translate(1357.614 -213.888)"/>
  </g>
</svg>
