<?xml version="1.0" encoding="utf-8"?>
<!-- Generator: Adobe Illustrator 23.0.1, SVG Export Plug-In . SVG Version: 6.00 Build 0)  -->
<svg version="1.1" id="Layer_1" xmlns="http://www.w3.org/2000/svg" xmlns:xlink="http://www.w3.org/1999/xlink" x="0px" y="0px"
	 viewBox="0 0 1515 450" style="enable-background:new 0 0 1515 450;" xml:space="preserve">
<style type="text/css">
	
		.st0{opacity:7.000000e-02;fill:none;stroke:#000000;stroke-linecap:round;stroke-linejoin:round;stroke-miterlimit:10;enable-background:new    ;}
	.st1{fill:#AEAEAE;}
	.st2{font-family:'ArialMT';}
	.st3{font-size:16px;}
	.st4{fill:#8AE2F7;}
	.st5{fill:#D3AAEC;}
	.st6{fill:#8AEFE3;}
	.st7{fill:#231F20;}
</style>
<g id="Group_3261" transform="translate(-214 -773)">
	<line id="Line_55" class="st0" x1="261" y1="811.7" x2="1729" y2="811.7"/>
	<line id="Line_57" class="st0" x1="261" y1="904.7" x2="1729" y2="904.7"/>
	<line id="Line_58" class="st0" x1="261" y1="996.7" x2="1729" y2="996.7"/>
	<line id="Line_60" class="st0" x1="261" y1="1089.7" x2="1729.9" y2="1089.7"/>
	<line id="Line_100" class="st0" x1="260" y1="1181.7" x2="1729" y2="1181.7"/>
	<text transform="matrix(1 0 0 1 1164 1218.7305)" class="st1 st2 st3">RADIOL0G..</text>
	<text transform="matrix(1 0 0 1 1594 1218.7305)" class="st1 st2 st3">RADIOL0G..</text>
	<text transform="matrix(1 0 0 1 1031 1218.7305)" class="st1 st2 st3">PEDIATRIC...</text>
	<text transform="matrix(1 0 0 1 1461 1218.7305)" class="st1 st2 st3">PEDIATRIC...</text>
	<text transform="matrix(1 0 0 1 884 1218.7305)" class="st1 st2 st3">SURGEONS</text>
	<text transform="matrix(1 0 0 1 1314 1218.7305)" class="st1 st2 st3">SURGEONS</text>
	<text transform="matrix(1 0 0 1 736 1218.7305)" class="st1 st2 st3">ORTHOPA…</text>
	<text transform="matrix(1 0 0 1 593 1218.7305)" class="st1 st2 st3">THERAPISTS</text>
	<text transform="matrix(1 0 0 1 440 1218.7305)" class="st1 st2 st3">NUTIRITION...</text>
	<text transform="matrix(1 0 0 1 302 1218.7305)" class="st1 st2 st3">CARDIOLIG…</text>
	<g id="Group_3044" transform="translate(0 63.92)">
		<rect id="Rectangle_178" x="333" y="878.8" class="st4" width="50" height="240"/>
		<rect id="Rectangle_179" x="476" y="878.8" class="st4" width="50" height="240"/>
		<rect id="Rectangle_852" x="619" y="953.8" class="st4" width="50" height="165"/>
		<rect id="Rectangle_180" x="762" y="916.8" class="st4" width="50" height="202"/>
		<rect id="Rectangle_181" x="1048" y="901.8" class="st4" width="50" height="217"/>
		<rect id="Rectangle_850" x="905" y="947.8" class="st4" width="50" height="171"/>
		<rect id="Rectangle_182" x="1191" y="801.7" class="st4" width="50" height="317.1"/>
		<rect id="Rectangle_851" x="1334" y="916.8" class="st4" width="50" height="202"/>
		<rect id="Rectangle_183" x="1477" y="926.8" class="st4" width="50" height="192"/>
		<rect id="Rectangle_184" x="1620" y="901.8" class="st4" width="50" height="217"/>
	</g>
	<text transform="matrix(1 0 0 1 246 1186.7305)" class="st1 st2 st3">0</text>
	<text transform="matrix(1 0 0 1 215 1094.7305)" class="st1 st2 st3">2000</text>
	<text transform="matrix(1 0 0 1 214 1002.7305)" class="st1 st2 st3">4000</text>
	<text transform="matrix(1 0 0 1 214 907.7305)" class="st1 st2 st3">6000</text>
	<text transform="matrix(1 0 0 1 214 817.7305)" class="st1 st2 st3">8000</text>
	<g id="Group_3043" transform="translate(0 63.92)">
		<rect id="Rectangle_1542" x="333" y="848.2" class="st5" width="50" height="108"/>
		<rect id="Rectangle_1623" x="476" y="878.8" class="st5" width="50" height="126"/>
		<rect id="Rectangle_1624" x="619" y="929.8" class="st5" width="50" height="51"/>
		<rect id="Rectangle_1625" x="762" y="912.3" class="st5" width="50" height="86"/>
		<rect id="Rectangle_1626" x="905" y="943.3" class="st5" width="50" height="30"/>
		<rect id="Rectangle_1627" x="1048" y="866.1" class="st5" width="50" height="115"/>
		<rect id="Rectangle_1628" x="1191" y="801.7" class="st5" width="50" height="96"/>
		<rect id="Rectangle_1629" x="1334" y="879.3" class="st5" width="50" height="100"/>
		<rect id="Rectangle_1630" x="1477" y="918.6" class="st5" width="50" height="63"/>
		<rect id="Rectangle_1631" x="1620" y="870.8" class="st5" width="50" height="31"/>
	</g>
	<g id="Group_3045" transform="translate(1137 -449)">
		<circle id="Ellipse_76" class="st4" cx="448" cy="1231.7" r="8"/>
		<circle id="Ellipse_285" class="st6" cx="533" cy="1231.7" r="8"/>
		<circle id="Ellipse_77" class="st5" cx="343" cy="1231.7" r="8"/>
		<text transform="matrix(1 0 0 1 359 1236.7305)" class="st7 st2 st3">Female</text>
		<text transform="matrix(1 0 0 1 464 1236.7305)" class="st7 st2 st3">Male</text>
		<text transform="matrix(1 0 0 1 549 1236.7305)" class="st7 st2 st3">Other</text>
	</g>
	<g id="Group_3263" transform="translate(0 53.92)">
		<rect id="Rectangle_1542-2" x="333" y="851.8" class="st6" width="50" height="15"/>
		<rect id="Rectangle_1623-2" x="476" y="873.4" class="st6" width="50" height="15.8"/>
		<rect id="Rectangle_1624-2" x="619" y="900.9" class="st6" width="50" height="41.8"/>
		<rect id="Rectangle_1625-2" x="762" y="866.8" class="st6" width="50" height="86"/>
		<rect id="Rectangle_1626-2" x="905" y="924.5" class="st6" width="50" height="30"/>
		<rect id="Rectangle_1627-2" x="1048" y="852.3" class="st6" width="50" height="26"/>
		<rect id="Rectangle_1628-2" x="1191" y="811.8" class="st6" width="50" height="6"/>
		<rect id="Rectangle_1629-2" x="1334" y="880.8" class="st6" width="50" height="10"/>
		<rect id="Rectangle_1630-2" x="1477" y="918.4" class="st6" width="50" height="12"/>
		<rect id="Rectangle_1631-2" x="1620" y="875.6" class="st6" width="50" height="7"/>
	</g>
</g>
</svg>
