<?xml version="1.0" encoding="utf-8"?>
<!-- Generator: Adobe Illustrator 23.0.6, SVG Export Plug-In . SVG Version: 6.00 Build 0)  -->
<svg version="1.1" id="Layer_1" xmlns="http://www.w3.org/2000/svg" xmlns:xlink="http://www.w3.org/1999/xlink" x="0px" y="0px"
	 viewBox="0 0 50 50" style="enable-background:new 0 0 50 50;" xml:space="preserve">
<style type="text/css">
	.st0{fill:#FFFFFF;}
	.st1{fill:#39B54A;}
	.st2{fill:#E80000;}
	.st3{fill:#BCBCBC;}
</style>
<g>
	<g>
		<path class="st3" d="M28,11.3c-7.6,0-13.7,6.1-13.7,13.7c0,7.6,6.1,13.7,13.7,13.7c7.6,0,13.7-6.1,13.7-13.7
			C41.7,17.4,35.6,11.3,28,11.3z"/>
	</g>
	<g>
		<g>
			<path class="st0" d="M28.1,21.3c-0.6,0-1.1,0.5-1.1,1.1v9.6c0,0.6,0.5,1.1,1.1,1.1c0.6,0,1.1-0.5,1.1-1.1v-9.6
				C29.1,21.7,28.7,21.3,28.1,21.3z"/>
			<path class="st0" d="M28.1,20.9c0.8,0,1.4,0.6,1.4,1.4v9.6c0,0.8-0.6,1.4-1.4,1.4s-1.4-0.6-1.4-1.4v-9.6
				C26.7,21.5,27.3,20.9,28.1,20.9z M28.1,32.6c0.4,0,0.7-0.3,0.7-0.7v-9.6c0-0.4-0.3-0.7-0.7-0.7s-0.7,0.3-0.7,0.7v9.6
				C27.4,32.3,27.7,32.6,28.1,32.6z"/>
		</g>
		<g>
			<circle class="st0" cx="28.1" cy="18.3" r="1.1"/>
			<path class="st0" d="M28.1,16.9c0.8,0,1.5,0.7,1.5,1.5s-0.7,1.5-1.5,1.5s-1.5-0.7-1.5-1.5S27.3,16.9,28.1,16.9z M28.1,19.1
				c0.4,0,0.7-0.3,0.7-0.7s-0.3-0.7-0.7-0.7s-0.7,0.3-0.7,0.7S27.7,19.1,28.1,19.1z"/>
		</g>
	</g>
</g>
</svg>
