<?xml version="1.0" encoding="utf-8"?>
<!-- Generator: Adobe Illustrator 23.0.6, SVG Export Plug-In . SVG Version: 6.00 Build 0)  -->
<svg version="1.1" id="Layer_1" xmlns="http://www.w3.org/2000/svg" xmlns:xlink="http://www.w3.org/1999/xlink" x="0px" y="0px"
	 viewBox="0 0 50 50" style="enable-background:new 0 0 50 50;" xml:space="preserve">
<style type="text/css">
	.st0{fill:#FFFFFF;}
	.st1{fill:#39B54A;}
	.st2{fill:#E80000;}
	.st3{fill:#BCBCBC;}
</style>
<g>
	<g>
		<path class="st0" d="M25,11.3c-7.6,0-13.7,6.1-13.7,13.7c0,7.6,6.1,13.7,13.7,13.7c7.6,0,13.7-6.1,13.7-13.7
			C38.7,17.4,32.6,11.3,25,11.3z"/>
	</g>
	<g>
		<g>
			<path class="st2" d="M25.1,28.9c0.6,0,1.1-0.5,1.1-1.1v-9.6c0-0.6-0.5-1.1-1.1-1.1c-0.6,0-1.1,0.5-1.1,1.1v9.6
				C24,28.5,24.5,28.9,25.1,28.9z"/>
			<path class="st2" d="M25.1,29.3c-0.8,0-1.4-0.6-1.4-1.4v-9.6c0-0.8,0.6-1.4,1.4-1.4s1.4,0.6,1.4,1.4v9.6
				C26.5,28.7,25.9,29.3,25.1,29.3z M25.1,17.6c-0.4,0-0.7,0.3-0.7,0.7v9.6c0,0.4,0.3,0.7,0.7,0.7s0.7-0.3,0.7-0.7v-9.6
				C25.8,17.9,25.5,17.6,25.1,17.6z"/>
		</g>
		<g>
			<circle class="st2" cx="25.1" cy="31.9" r="1.1"/>
			<path class="st2" d="M25.1,33.3c-0.8,0-1.5-0.7-1.5-1.5s0.7-1.5,1.5-1.5s1.5,0.7,1.5,1.5S25.9,33.3,25.1,33.3z M25.1,31.1
				c-0.4,0-0.7,0.3-0.7,0.7s0.3,0.7,0.7,0.7s0.7-0.3,0.7-0.7S25.5,31.1,25.1,31.1z"/>
		</g>
	</g>
</g>
</svg>
