Taxonomy,Grouping,Classification,Specialization
202C00000X,Allopathic & Osteopathic Physicians,Independent Medical Examiner,
202K00000X,Allopathic & Osteopathic Physicians,Phlebology,
204C00000X,Allopathic & Osteopathic Physicians,"Neuromusculoskeletal Medicine, Sports Medicine",
204D00000X,Allopathic & Osteopathic Physicians,Neuromusculoskeletal Medicine & OMM,
204E00000X,Allopathic & Osteopathic Physicians,Oral & Maxillofacial Surgery,
204F00000X,Allopathic & Osteopathic Physicians,Transplant Surgery,
204R00000X,Allopathic & Osteopathic Physicians,Electrodiagnostic Medicine,
207K00000X,Allopathic & Osteopathic Physicians,Allergy & Immunology
207L00000X,Allopathic & Osteopathic Physicians,Anesthesiology,
207N00000X,Allopathic & Osteopathic Physicians,Dermatology,
207P00000X,Allopathic & Osteopathic Physicians,Emergency Medicine,
207Q00000X,Allopathic & Osteopathic Physicians,Family Medicine,
207R00000X,Allopathic & Osteopathic Physicians,Internal Medicine,
207RA0000X,Allopathic & Osteopathic Physicians,Internal Medicine,Adolescent Medicine
207RA0001X,Allopathic & Osteopathic Physicians,Internal Medicine,Advanced Heart Failure and Transplant Cardiology
207RA0002X,Allopathic & Osteopathic Physicians,Internal Medicine,Adult Congenital Heart Disease
207RA0201X,Allopathic & Osteopathic Physicians,Internal Medicine,Allergy & Immunology
207RA0401X,Allopathic & Osteopathic Physicians,Internal Medicine,Addiction Medicine
207RB0002X,Allopathic & Osteopathic Physicians,Internal Medicine,Obesity Medicine
207RC0000X,Allopathic & Osteopathic Physicians,Internal Medicine,Cardiovascular Disease
207RC0001X,Allopathic & Osteopathic Physicians,Internal Medicine,Clinical Cardiac Electrophysiology
207RC0200X,Allopathic & Osteopathic Physicians,Internal Medicine,Critical Care Medicine
207RE0101X,Allopathic & Osteopathic Physicians,Internal Medicine,"Endocrinology, Diabetes & Metabolism"
207RG0100X,Allopathic & Osteopathic Physicians,Internal Medicine,Gastroenterology
207RG0300X,Allopathic & Osteopathic Physicians,Internal Medicine,Geriatric Medicine
207RH0000X,Allopathic & Osteopathic Physicians,Internal Medicine,Hematology
207RH0002X,Allopathic & Osteopathic Physicians,Internal Medicine,Hospice and Palliative Medicine
207RH0003X,Allopathic & Osteopathic Physicians,Internal Medicine,Hematology & Oncology
207RH0005X,Allopathic & Osteopathic Physicians,Internal Medicine,Hypertension Specialist
207RI0001X,Allopathic & Osteopathic Physicians,Internal Medicine,Clinical & Laboratory Immunology
207RI0008X,Allopathic & Osteopathic Physicians,Internal Medicine,Hepatology
207RI0011X,Allopathic & Osteopathic Physicians,Internal Medicine,Interventional Cardiology
207RI0200X,Allopathic & Osteopathic Physicians,Internal Medicine,Infectious Disease
207RM1200X,Allopathic & Osteopathic Physicians,Internal Medicine,Magnetic Resonance Imaging (MRI)
207RN0300X,Allopathic & Osteopathic Physicians,Internal Medicine,Nephrology
207RP1001X,Allopathic & Osteopathic Physicians,Internal Medicine,Pulmonary Disease
207RR0500X,Allopathic & Osteopathic Physicians,Internal Medicine,Rheumatology
207RS0010X,Allopathic & Osteopathic Physicians,Internal Medicine,Sports Medicine
207RS0012X,Allopathic & Osteopathic Physicians,Internal Medicine,Sleep Medicine
207RT0003X,Allopathic & Osteopathic Physicians,Internal Medicine,Transplant Hepatology
207RX0202X,Allopathic & Osteopathic Physicians,Internal Medicine,Medical Oncology
207SC0300X,Allopathic & Osteopathic Physicians,Medical Genetics
207T00000X,Allopathic & Osteopathic Physicians,Neurological Surgery,
207U00000X,Allopathic & Osteopathic Physicians,Nuclear Medicine
207V00000X,Allopathic & Osteopathic Physicians,Obstetrics & Gynecology
207W00000X,Allopathic & Osteopathic Physicians,Ophthalmology,
207X00000X,Allopathic & Osteopathic Physicians,Orthopaedic Surgery,
207Y00000X,Allopathic & Osteopathic Physicians,Otolaryngology,
207ZB0001X,Allopathic & Osteopathic Physicians,Pathology
208000000X,Allopathic & Osteopathic Physicians,Pediatrics,
208100000X,Allopathic & Osteopathic Physicians,Physical Medicine & Rehabilitation,
208200000X,Allopathic & Osteopathic Physicians,Plastic Surgery,
2083A0100X,Allopathic & Osteopathic Physicians,Preventive Medicine
2084A0401X,Allopathic & Osteopathic Physicians,Psychiatry & Neurology
2085B0100X,Allopathic & Osteopathic Physicians,Radiology
208600000X,Allopathic & Osteopathic Physicians,Surgery,
208800000X,Allopathic & Osteopathic Physicians,Urology,
208C00000X,Allopathic & Osteopathic Physicians,Colon & Rectal Surgery,
208D00000X,Allopathic & Osteopathic Physicians,General Practice,
208G00000X,Allopathic & Osteopathic Physicians,Thoracic Surgery (Cardiothoracic Vascular Surgery),
208M00000X,Allopathic & Osteopathic Physicians,Hospitalist,
208U00000X,Allopathic & Osteopathic Physicians,Clinical Pharmacology,
208VP0000X,Allopathic & Osteopathic Physicians,Pain Medicine
209800000X,Allopathic & Osteopathic Physicians,Legal Medicine,